<svg width="44" height="44" viewBox="0 0 44 44" fill="none" xmlns="http://www.w3.org/2000/svg">
<path d="M22 43C33.598 43 43 33.598 43 22C43 10.402 33.598 1 22 1C10.402 1 1 10.402 1 22C1 33.598 10.402 43 22 43Z" stroke="white" stroke-width="2" stroke-miterlimit="10"/>
<path d="M21.9997 26.935C26.9869 26.935 31.0297 22.8921 31.0297 17.905C31.0297 12.9179 26.9869 8.875 21.9997 8.875C17.0126 8.875 12.9697 12.9179 12.9697 17.905C12.9697 22.8921 17.0126 26.935 21.9997 26.935Z" stroke="white" stroke-width="2" stroke-miterlimit="10"/>
<path d="M36.2797 36.4902C28.4047 28.6152 15.5947 28.6152 7.61475 36.4902" stroke="white" stroke-width="2" stroke-miterlimit="10"/>
</svg>
