<svg width="17" height="16" viewBox="0 0 17 16" fill="none" xmlns="http://www.w3.org/2000/svg">
<path d="M16 9C16.5523 9 17 8.55229 17 8C17 7.44772 16.5523 7 16 7L16 9ZM0.292894 7.29287C-0.0976315 7.68339 -0.0976314 8.31656 0.292893 8.70708L6.65684 15.0711C7.04737 15.4616 7.68053 15.4616 8.07106 15.0711C8.46158 14.6805 8.46158 14.0474 8.07106 13.6568L2.41421 7.99998L8.07108 2.34313C8.4616 1.95261 8.4616 1.31945 8.07108 0.92892C7.68055 0.538395 7.04739 0.538394 6.65686 0.928918L0.292894 7.29287ZM16 7L1 6.99998L0.999998 8.99998L16 9L16 7Z" fill="#1C1C1C"/>
</svg>
