<svg width="61" height="76" viewBox="0 0 61 76" fill="none" xmlns="http://www.w3.org/2000/svg">
<path d="M30.884 47.7714C45.5007 47.7714 56.4573 37.0715 56.4573 23.8972V23.7597C56.4337 10.5624 45.6187 0 31.002 0C16.3853 0 5.42871 10.6999 5.42871 23.8743V24.0117C5.45232 37.209 16.2673 47.7714 30.884 47.7714ZM18.8411 23.7597C18.8411 17.1381 23.6346 11.4789 30.884 11.4789C38.0624 11.4789 42.9976 17.2527 42.9976 23.8743V24.0117C42.9976 30.6333 38.2041 36.2925 31.0256 36.2925C23.7999 36.2925 18.8647 30.5187 18.8647 23.8972V23.7597H18.8411Z" fill="#1C1C1C"/>
<path d="M12.5014 75.9999C16.0073 69.8381 22.6962 65.6544 30.3769 65.6544C38.0577 65.6544 44.7466 69.8381 48.2525 75.9999H60.8C56.6021 63.4034 44.5621 54.2856 30.4 54.2856C16.2379 54.2856 4.19788 63.4034 0 75.9999H12.5014Z" fill="#9224FF"/>
</svg>
