<svg width="22" height="22" viewBox="0 0 22 22" fill="none" xmlns="http://www.w3.org/2000/svg">
<path d="M14.6419 2.63746L14.668 2.64659L14.6938 2.6366L21.214 0.109104L21.3956 0.0750397C21.6932 0.0785348 21.925 0.312567 21.925 0.611111V19.0911C21.925 19.3359 21.7663 19.5299 21.5363 19.6066L21.5361 19.6067L14.6671 21.9207L7.35811 19.3625L7.33201 19.3534L7.30623 19.3634L0.786029 21.8909L0.604358 21.925C0.306796 21.9215 0.075 21.6874 0.075 21.3889V2.90889C0.075 2.66408 0.233685 2.47005 0.463717 2.39337L0.463944 2.3933L7.33287 0.0792983L14.6419 2.63746ZM8.58033 2.9481L8.48056 2.91318V3.01889V17.27V17.3232L8.53078 17.3408L13.4197 19.0519L13.5194 19.0868V18.9811V4.73V4.67679L13.4692 4.65921L8.58033 2.9481ZM2.42051 4.15781L2.36944 4.175V4.22889V18.7122V18.8216L2.47149 18.7822L6.13816 17.3644L6.18611 17.3459V17.2944V2.99444V2.89006L6.08718 2.92336L2.42051 4.15781ZM19.5795 17.8422L19.6306 17.825V17.7711V3.3V3.19059L19.5285 3.23005L15.8618 4.64783L15.8139 4.66637V4.71778V19.0056V19.1099L15.9128 19.0766L19.5795 17.8422Z" fill="currentColor" stroke="white" stroke-width="0.15"/>
</svg>
