;START_OF_HEADER
;HEADER_VERSION:0.1
;FLAVOR:Griffin
;GENERATOR.NAME:Cura_SteamEngine
;GENERATOR.VERSION:4.6.1
;GENERATOR.BUILD_DATE:2020-04-29
;TARGET_MACHINE.NAME:Ultimaker S5
;EXTRUDER_TRAIN.0.INITIAL_TEMPERATURE:215
;EXTRUDER_TRAIN.0.MATERIAL.VOLUME_USED:657
;EXTRUDER_TRAIN.0.MATERIAL.GUID:03f24266-0291-43c2-a6da-5211892a2699
;EXTRUDER_TRAIN.0.NOZZLE.DIAMETER:0.4
;EXTRUDER_TRAIN.0.NOZZLE.NAME:AA 0.4
;BUILD_PLATE.TYPE:glass
;BUILD_PLATE.INITIAL_TEMPERATURE:60
;BUILD_VOLUME.TEMPERATURE:24
;PRINT.TIME:339
;PRINT.GROUPS:1
;PRINT.SIZE.MIN.X:153.04
;PRINT.SIZE.MIN.Y:108.04
;PRINT.SIZE.MIN.Z:0.2
;PRINT.SIZE.MAX.X:176.96
;PRINT.SIZE.MAX.Y:131.96
;PRINT.SIZE.MAX.Z:10
;END_OF_HEADER
;Generated with Cura_SteamEngine 4.6.1
T0
M82 ;absolute extrusion mode

G92 E0
M109 S215
G280 S1
G0 Z20.001
G1 F1500 E-6.5
;LAYER_COUNT:50
;LAYER:0
M107
M204 S625
M205 X5 Y5
G1 F600 Z2.2
G0 F3600 X175.983 Y128.555 Z2.2
M204 S500
;TYPE:SKIRT
G1 F600 Z0.2
G1 F1500 E0
G1 F1200 X175.569 Y129.175 E0.01122
G1 X175.09 Y129.747 E0.02245
G1 X174.553 Y130.265 E0.03367
G1 X173.963 Y130.722 E0.0449
G1 X173.328 Y131.113 E0.05613
G1 X172.655 Y131.434 E0.06735
G1 X171.951 Y131.681 E0.07857
G1 X171.225 Y131.851 E0.0898
G1 X170.484 Y131.943 E0.10103
G1 X160 Y131.96 E0.2588
G1 X159.255 Y131.92 E0.27003
G1 X158.519 Y131.801 E0.28125
G1 X157.8 Y131.603 E0.29247
G1 X157.106 Y131.33 E0.30369
G1 X156.445 Y130.983 E0.31493
G1 X155.825 Y130.569 E0.32614
G1 X155.253 Y130.09 E0.33737
G1 X154.735 Y129.553 E0.3486
G1 X154.278 Y128.963 E0.35983
G1 X153.887 Y128.328 E0.37105
G1 X153.566 Y127.655 E0.38227
G1 X153.319 Y126.951 E0.3935
G1 X153.149 Y126.225 E0.40472
G1 X153.057 Y125.484 E0.41596
G1 X153.04 Y115 E0.57373
G1 X153.08 Y114.255 E0.58495
G1 X153.199 Y113.519 E0.59617
G1 X153.397 Y112.8 E0.6074
G1 X153.67 Y112.106 E0.61862
G1 X154.017 Y111.445 E0.62985
G1 X154.431 Y110.825 E0.64107
G1 X154.91 Y110.253 E0.6523
G1 X155.447 Y109.735 E0.66353
G1 X156.037 Y109.278 E0.67476
G1 X156.672 Y108.887 E0.68598
G1 X157.345 Y108.566 E0.6972
G1 X158.049 Y108.319 E0.70843
G1 X158.775 Y108.149 E0.71965
G1 X159.516 Y108.057 E0.73088
G1 X170 Y108.04 E0.88865
G1 X171.481 Y108.199 E0.91107
G1 X172.2 Y108.397 E0.92229
G1 X172.894 Y108.67 E0.93351
G1 X173.555 Y109.017 E0.94475
G1 X174.175 Y109.431 E0.95597
G1 X174.747 Y109.91 E0.96719
G1 X175.265 Y110.447 E0.97842
G1 X175.722 Y111.037 E0.98965
G1 X176.113 Y111.672 E1.00087
G1 X176.434 Y112.345 E1.01209
G1 X176.681 Y113.049 E1.02332
G1 X176.851 Y113.775 E1.03454
G1 X176.943 Y114.516 E1.04578
G1 X176.96 Y125 E1.20355
G1 X176.92 Y125.745 E1.21477
G1 X176.801 Y126.481 E1.22599
G1 X176.603 Y127.2 E1.23722
G1 X176.33 Y127.894 E1.24844
G1 X175.983 Y128.555 E1.25967
M204 S625
G0 F3600 X175.505 Y128.418
M204 S500
G1 F1200 X175.092 Y129.007 E1.2705
G1 X174.616 Y129.547 E1.28133
G1 X174.084 Y130.031 E1.29215
G1 X173.5 Y130.453 E1.303
G1 X172.874 Y130.808 E1.31383
G1 X172.212 Y131.091 E1.32466
G1 X171.523 Y131.298 E1.33549
G1 X170.815 Y131.428 E1.34632
G1 X170 Y131.48 E1.35861
G1 X160 Y131.48 E1.50909
G1 X159.281 Y131.44 E1.51993
G1 X158.572 Y131.321 E1.53075
G1 X157.88 Y131.123 E1.54158
G1 X157.214 Y130.85 E1.55241
G1 X156.582 Y130.505 E1.56325
G1 X155.993 Y130.092 E1.57407
G1 X155.453 Y129.616 E1.5849
G1 X154.969 Y129.084 E1.59573
G1 X154.547 Y128.5 E1.60657
G1 X154.192 Y127.874 E1.6174
G1 X153.909 Y127.212 E1.62823
G1 X153.702 Y126.523 E1.63906
G1 X153.572 Y125.815 E1.64989
G1 X153.52 Y125 E1.66218
G1 X153.52 Y115 E1.81267
G1 X153.56 Y114.281 E1.8235
G1 X153.679 Y113.572 E1.83432
G1 X153.877 Y112.88 E1.84515
G1 X154.15 Y112.214 E1.85598
G1 X154.495 Y111.582 E1.86682
G1 X154.908 Y110.993 E1.87764
G1 X155.384 Y110.453 E1.88848
G1 X155.916 Y109.969 E1.8993
G1 X156.5 Y109.547 E1.91014
G1 X157.126 Y109.192 E1.92097
G1 X157.788 Y108.909 E1.93181
G1 X158.477 Y108.702 E1.94263
G1 X159.185 Y108.572 E1.95347
G1 X160 Y108.52 E1.96575
G1 X170 Y108.52 E2.11624
G1 X171.428 Y108.679 E2.13786
G1 X172.12 Y108.877 E2.14869
G1 X172.786 Y109.15 E2.15952
G1 X173.418 Y109.495 E2.17036
G1 X174.007 Y109.908 E2.18119
G1 X174.547 Y110.384 E2.19202
G1 X175.031 Y110.916 E2.20284
G1 X175.453 Y111.5 E2.21368
G1 X175.808 Y112.126 E2.22451
G1 X176.091 Y112.788 E2.23535
G1 X176.298 Y113.477 E2.24617
G1 X176.428 Y114.185 E2.25701
G1 X176.48 Y115 E2.2693
G1 X176.48 Y125 E2.41978
G1 X176.44 Y125.719 E2.43062
G1 X176.321 Y126.428 E2.44143
G1 X176.123 Y127.12 E2.45227
G1 X175.85 Y127.786 E2.4631
G1 X175.505 Y128.418 E2.47393
M204 S625
G0 F3600 X175.027 Y128.275
M204 S500
G1 F1200 X174.616 Y128.833 E2.48436
G1 X174.144 Y129.339 E2.49478
G1 X173.616 Y129.788 E2.50521
G1 X173.041 Y130.173 E2.51562
G1 X172.424 Y130.488 E2.52604
G1 X171.776 Y130.731 E2.53646
G1 X171.103 Y130.898 E2.54689
G1 X170 Y131 E2.56356
G1 X160 Y131 E2.71405
G1 X159.309 Y130.96 E2.72446
G1 X158.626 Y130.841 E2.7349
G1 X157.963 Y130.643 E2.74531
G1 X157.326 Y130.371 E2.75573
G1 X156.725 Y130.027 E2.76615
G1 X156.167 Y129.616 E2.77658
G1 X155.661 Y129.144 E2.78699
G1 X155.212 Y128.616 E2.79742
G1 X154.827 Y128.041 E2.80784
G1 X154.512 Y127.424 E2.81826
G1 X154.269 Y126.776 E2.82868
G1 X154.102 Y126.103 E2.83911
G1 X154 Y125 E2.85578
G1 X154 Y115 E3.00627
G1 X154.04 Y114.309 E3.01668
G1 X154.159 Y113.626 E3.02711
G1 X154.357 Y112.963 E3.03753
G1 X154.629 Y112.326 E3.04795
G1 X154.973 Y111.725 E3.05837
G1 X155.384 Y111.167 E3.0688
G1 X155.856 Y110.661 E3.07921
G1 X156.384 Y110.212 E3.08964
G1 X156.959 Y109.827 E3.10006
G1 X157.576 Y109.512 E3.11048
G1 X158.224 Y109.269 E3.1209
G1 X158.897 Y109.102 E3.13133
G1 X160 Y109 E3.148
G1 X170 Y109 E3.29848
G1 X171.374 Y109.159 E3.3193
G1 X172.037 Y109.357 E3.32971
G1 X172.674 Y109.629 E3.34013
G1 X173.275 Y109.973 E3.35056
G1 X173.833 Y110.384 E3.36098
G1 X174.339 Y110.856 E3.3714
G1 X174.788 Y111.384 E3.38183
G1 X175.173 Y111.959 E3.39224
G1 X175.488 Y112.576 E3.40267
G1 X175.731 Y113.224 E3.41308
G1 X175.898 Y113.897 E3.42351
G1 X176 Y115 E3.44018
G1 X176 Y125 E3.59067
G1 X175.96 Y125.691 E3.60108
G1 X175.841 Y126.374 E3.61152
G1 X175.643 Y127.037 E3.62193
G1 X175.371 Y127.674 E3.63235
G1 X175.027 Y128.275 E3.64277
M204 S625
G0 F3600 X174.892 Y127.557
M204 S500
G1 F1200 X174.55 Y128.126 E3.65276
G1 X174.141 Y128.65 E3.66277
G1 X173.673 Y129.121 E3.67276
G1 X173.151 Y129.532 E3.68276
G1 X172.584 Y129.878 E3.69275
G1 X171.979 Y130.153 E3.70275
G1 X171.346 Y130.353 E3.71274
G1 X170.693 Y130.476 E3.72274
G1 X170 Y130.52 E3.73319
G1 X160 Y130.52 E3.88368
G1 X159.337 Y130.48 E3.89367
G1 X158.684 Y130.361 E3.90366
G1 X158.049 Y130.164 E3.91367
G1 X157.443 Y129.892 E3.92366
G1 X156.874 Y129.55 E3.93365
G1 X156.35 Y129.141 E3.94365
G1 X155.879 Y128.673 E3.95365
G1 X155.468 Y128.151 E3.96364
G1 X155.122 Y127.584 E3.97364
G1 X154.847 Y126.979 E3.98364
G1 X154.647 Y126.346 E3.99363
G1 X154.524 Y125.693 E4.00363
G1 X154.48 Y125 E4.01408
G1 X154.48 Y115 E4.16456
G1 X154.52 Y114.337 E4.17456
G1 X154.639 Y113.684 E4.18455
G1 X154.836 Y113.049 E4.19455
G1 X155.108 Y112.443 E4.20455
G1 X155.45 Y111.874 E4.21454
G1 X155.859 Y111.35 E4.22454
G1 X156.327 Y110.879 E4.23453
G1 X156.849 Y110.468 E4.24453
G1 X157.416 Y110.122 E4.25453
G1 X158.021 Y109.847 E4.26453
G1 X158.654 Y109.647 E4.27452
G1 X159.307 Y109.524 E4.28452
G1 X160 Y109.48 E4.29497
G1 X170 Y109.48 E4.44545
G1 X171.316 Y109.639 E4.4654
G1 X171.951 Y109.836 E4.4754
G1 X172.557 Y110.108 E4.4854
G1 X173.126 Y110.45 E4.49539
G1 X173.65 Y110.859 E4.50539
G1 X174.121 Y111.327 E4.51538
G1 X174.532 Y111.849 E4.52538
G1 X174.878 Y112.416 E4.53538
G1 X175.153 Y113.021 E4.54538
G1 X175.353 Y113.654 E4.55537
G1 X175.476 Y114.307 E4.56537
G1 X175.52 Y115 E4.57582
G1 X175.52 Y125 E4.7263
G1 X175.48 Y125.663 E4.7363
G1 X175.361 Y126.316 E4.74629
G1 X175.164 Y126.951 E4.75629
G1 X174.892 Y127.557 E4.76629
M204 S625
G0 F3600 X174.413 Y127.434
M204 S500
G1 F1200 X174.072 Y127.969 E4.77583
G1 X173.667 Y128.458 E4.78539
G1 X173.203 Y128.891 E4.79494
G1 X172.689 Y129.263 E4.80449
G1 X172.132 Y129.567 E4.81404
G1 X171.541 Y129.799 E4.82359
G1 X170.926 Y129.954 E4.83314
G1 X170 Y130.04 E4.84713
G1 X160 Y130.04 E4.99761
G1 X159.367 Y130 E5.00716
G1 X158.743 Y129.881 E5.01672
G1 X158.14 Y129.684 E5.02627
G1 X157.566 Y129.413 E5.03582
G1 X157.031 Y129.072 E5.04536
G1 X156.542 Y128.667 E5.05492
G1 X156.109 Y128.203 E5.06447
G1 X155.737 Y127.689 E5.07402
G1 X155.433 Y127.132 E5.08357
G1 X155.201 Y126.541 E5.09312
G1 X155.046 Y125.926 E5.10267
G1 X154.96 Y125 E5.11666
G1 X154.96 Y115 E5.26714
G1 X155 Y114.367 E5.27669
G1 X155.119 Y113.743 E5.28625
G1 X155.316 Y113.14 E5.2958
G1 X155.587 Y112.566 E5.30535
G1 X155.928 Y112.031 E5.31489
G1 X156.333 Y111.542 E5.32445
G1 X156.797 Y111.109 E5.334
G1 X157.311 Y110.737 E5.34355
G1 X157.868 Y110.433 E5.3531
G1 X158.459 Y110.201 E5.36265
G1 X159.074 Y110.046 E5.3722
G1 X160 Y109.96 E5.38619
G1 X170 Y109.96 E5.53667
G1 X171.257 Y110.119 E5.55574
G1 X171.86 Y110.316 E5.56529
G1 X172.434 Y110.587 E5.57484
G1 X172.969 Y110.928 E5.58439
G1 X173.458 Y111.333 E5.59394
G1 X173.891 Y111.797 E5.60349
G1 X174.263 Y112.311 E5.61304
G1 X174.567 Y112.868 E5.62259
G1 X174.799 Y113.459 E5.63214
G1 X174.954 Y114.074 E5.64169
G1 X175.04 Y115 E5.65568
G1 X175.04 Y125 E5.80617
G1 X175 Y125.633 E5.81571
G1 X174.881 Y126.257 E5.82527
G1 X174.684 Y126.86 E5.83482
G1 X174.413 Y127.434 E5.84437
M204 S625
G0 F3600 X173.935 Y127.305
M204 S500
G1 F1200 X173.596 Y127.804 E5.85345
G1 X173.194 Y128.255 E5.86254
G1 X172.736 Y128.648 E5.87162
G1 X172.23 Y128.978 E5.88071
G1 X171.685 Y129.237 E5.88979
G1 X171.111 Y129.423 E5.89887
G1 X170.517 Y129.531 E5.90796
G1 X170 Y129.56 E5.91575
G1 X160 Y129.56 E6.06623
G1 X159.398 Y129.52 E6.07531
G1 X158.806 Y129.401 E6.0844
G1 X158.235 Y129.205 E6.09349
G1 X157.695 Y128.935 E6.10257
G1 X157.196 Y128.596 E6.11165
G1 X156.745 Y128.194 E6.12074
G1 X156.352 Y127.736 E6.12982
G1 X156.022 Y127.23 E6.13891
G1 X155.763 Y126.685 E6.14799
G1 X155.577 Y126.111 E6.15707
G1 X155.469 Y125.517 E6.16616
G1 X155.44 Y125 E6.17395
G1 X155.44 Y115 E6.32444
G1 X155.48 Y114.398 E6.33351
G1 X155.599 Y113.806 E6.3426
G1 X155.795 Y113.235 E6.35169
G1 X156.065 Y112.695 E6.36077
G1 X156.404 Y112.196 E6.36985
G1 X156.806 Y111.745 E6.37894
G1 X157.264 Y111.352 E6.38802
G1 X157.77 Y111.022 E6.39711
G1 X158.315 Y110.763 E6.40619
G1 X158.889 Y110.577 E6.41527
G1 X159.483 Y110.469 E6.42436
G1 X160 Y110.44 E6.43215
G1 X170 Y110.44 E6.58264
G1 X171.194 Y110.599 E6.60076
G1 X171.765 Y110.795 E6.60985
G1 X172.305 Y111.065 E6.61893
G1 X172.804 Y111.404 E6.62801
G1 X173.255 Y111.806 E6.6371
G1 X173.648 Y112.264 E6.64618
G1 X173.978 Y112.77 E6.65528
G1 X174.237 Y113.315 E6.66436
G1 X174.423 Y113.889 E6.67344
G1 X174.531 Y114.483 E6.68252
G1 X174.56 Y115 E6.69031
G1 X174.56 Y125 E6.8408
G1 X174.52 Y125.602 E6.84988
G1 X174.401 Y126.194 E6.85896
G1 X174.205 Y126.765 E6.86805
G1 X173.935 Y127.305 E6.87713
M204 S625
G0 F3600 X173.456 Y127.168
M204 S500
G1 F1200 X173.12 Y127.629 E6.88572
G1 X172.722 Y128.039 E6.89432
G1 X172.271 Y128.389 E6.90291
G1 X171.776 Y128.673 E6.9115
G1 X171.246 Y128.885 E6.92009
G1 X170.691 Y129.021 E6.92868
G1 X170 Y129.08 E6.93912
G1 X160 Y129.08 E7.08961
G1 X159.43 Y129.04 E7.0982
G1 X158.872 Y128.921 E7.10679
G1 X158.336 Y128.725 E7.11538
G1 X157.832 Y128.456 E7.12398
G1 X157.371 Y128.12 E7.13256
G1 X156.961 Y127.722 E7.14116
G1 X156.611 Y127.271 E7.14975
G1 X156.327 Y126.776 E7.15834
G1 X156.115 Y126.246 E7.16693
G1 X155.979 Y125.691 E7.17553
G1 X155.92 Y125 E7.18596
G1 X155.92 Y115 E7.33645
G1 X155.96 Y114.43 E7.34505
G1 X156.079 Y113.872 E7.35363
G1 X156.275 Y113.336 E7.36222
G1 X156.544 Y112.832 E7.37082
G1 X156.88 Y112.371 E7.3794
G1 X157.278 Y111.961 E7.388
G1 X157.729 Y111.611 E7.39659
G1 X158.224 Y111.327 E7.40518
G1 X158.754 Y111.115 E7.41377
G1 X159.309 Y110.979 E7.42237
G1 X160 Y110.92 E7.4328
G1 X170 Y110.92 E7.58329
G1 X171.128 Y111.079 E7.60043
G1 X171.664 Y111.275 E7.60902
G1 X172.168 Y111.544 E7.61762
G1 X172.629 Y111.88 E7.6262
G1 X173.039 Y112.278 E7.6348
G1 X173.389 Y112.729 E7.64339
G1 X173.673 Y113.224 E7.65198
G1 X173.885 Y113.754 E7.66057
G1 X174.021 Y114.309 E7.66917
G1 X174.08 Y115 E7.6796
G1 X174.08 Y125 E7.83009
G1 X174.04 Y125.57 E7.83869
G1 X173.921 Y126.128 E7.84727
G1 X173.725 Y126.664 E7.85586
G1 X173.456 Y127.168 E7.86446
M204 S625
G0 F3600 X172.978 Y127.022
M204 S500
G1 F1200 X172.645 Y127.442 E7.87252
G1 X172.253 Y127.808 E7.88059
G1 X171.811 Y128.111 E7.88866
G1 X171.328 Y128.346 E7.89674
G1 X170.817 Y128.506 E7.9048
G1 X170 Y128.6 E7.91718
G1 X160 Y128.6 E8.06766
G1 X159.465 Y128.56 E8.07573
G1 X158.942 Y128.441 E8.08381
G1 X158.443 Y128.246 E8.09187
G1 X157.978 Y127.978 E8.09994
G1 X157.558 Y127.645 E8.10801
G1 X157.192 Y127.253 E8.11608
G1 X156.889 Y126.811 E8.12414
G1 X156.654 Y126.328 E8.13223
G1 X156.494 Y125.817 E8.14029
G1 X156.4 Y125 E8.15266
G1 X156.4 Y115 E8.30315
G1 X156.44 Y114.465 E8.31122
G1 X156.559 Y113.942 E8.31929
G1 X156.754 Y113.443 E8.32735
G1 X157.022 Y112.978 E8.33543
G1 X157.355 Y112.558 E8.34349
G1 X157.747 Y112.192 E8.35157
G1 X158.189 Y111.889 E8.35963
G1 X158.672 Y111.654 E8.36771
G1 X159.183 Y111.494 E8.37577
G1 X160 Y111.4 E8.38815
G1 X170 Y111.4 E8.53863
G1 X171.058 Y111.559 E8.55473
G1 X171.557 Y111.754 E8.56279
G1 X172.022 Y112.022 E8.57087
G1 X172.442 Y112.355 E8.57894
G1 X172.808 Y112.747 E8.58701
G1 X173.111 Y113.189 E8.59507
G1 X173.346 Y113.672 E8.60315
G1 X173.506 Y114.183 E8.61121
G1 X173.6 Y115 E8.62359
G1 X173.6 Y125 E8.77407
G1 X173.56 Y125.535 E8.78214
G1 X173.441 Y126.058 E8.79022
G1 X173.246 Y126.557 E8.79828
G1 X172.978 Y127.022 E8.80635
M204 S625
G0 F3600 X172.767 Y126.442
M204 S500
G1 F1200 X172.501 Y126.865 E8.81387
G1 X172.172 Y127.24 E8.82138
G1 X171.787 Y127.558 E8.8289
G1 X171.356 Y127.81 E8.83641
G1 X170.89 Y127.99 E8.84393
G1 X170.402 Y128.094 E8.85144
G1 X160 Y128.12 E9.00797
G1 X159.502 Y128.08 E9.01549
G1 X159.018 Y127.961 E9.02299
G1 X158.558 Y127.767 E9.0305
G1 X158.135 Y127.501 E9.03802
G1 X157.76 Y127.172 E9.04553
G1 X157.442 Y126.787 E9.05304
G1 X157.19 Y126.356 E9.06056
G1 X157.01 Y125.89 E9.06807
G1 X156.906 Y125.402 E9.07558
G1 X156.88 Y115 E9.23212
G1 X156.92 Y114.502 E9.23963
G1 X157.039 Y114.018 E9.24713
G1 X157.233 Y113.558 E9.25465
G1 X157.499 Y113.135 E9.26217
G1 X157.828 Y112.76 E9.26967
G1 X158.213 Y112.442 E9.27719
G1 X158.644 Y112.19 E9.2847
G1 X159.11 Y112.01 E9.29222
G1 X159.598 Y111.906 E9.29973
G1 X170 Y111.88 E9.45626
G1 X170.982 Y112.039 E9.47123
G1 X171.442 Y112.233 E9.47874
G1 X171.865 Y112.499 E9.48626
G1 X172.24 Y112.828 E9.49377
G1 X172.558 Y113.213 E9.50129
G1 X172.81 Y113.644 E9.5088
G1 X172.99 Y114.11 E9.51632
G1 X173.094 Y114.598 E9.52382
G1 X173.12 Y125 E9.68036
G1 X173.08 Y125.498 E9.68788
G1 X172.961 Y125.982 E9.69538
G1 X172.767 Y126.442 E9.70289
M204 S625
G0 F3600 X172.288 Y126.317
M204 S500
G1 F1200 X172.025 Y126.694 E9.70981
G1 X171.701 Y127.019 E9.71671
G1 X171.325 Y127.283 E9.72363
G1 X170.91 Y127.478 E9.73053
G1 X170.467 Y127.598 E9.73743
G1 X170 Y127.64 E9.74449
G1 X160 Y127.64 E9.89497
G1 X159.543 Y127.6 E9.90188
G1 X159.099 Y127.482 E9.90879
G1 X158.683 Y127.288 E9.9157
G1 X158.306 Y127.025 E9.92262
G1 X157.981 Y126.701 E9.92952
G1 X157.717 Y126.325 E9.93644
G1 X157.522 Y125.91 E9.94334
G1 X157.402 Y125.467 E9.95024
G1 X157.36 Y125 E9.9573
G1 X157.36 Y115 E10.10778
G1 X157.4 Y114.543 E10.11469
G1 X157.518 Y114.099 E10.1216
G1 X157.712 Y113.683 E10.12851
G1 X157.975 Y113.306 E10.13542
G1 X158.299 Y112.981 E10.14233
G1 X158.675 Y112.717 E10.14924
G1 X159.09 Y112.522 E10.15614
G1 X159.533 Y112.402 E10.16305
G1 X160 Y112.36 E10.17011
G1 X170 Y112.36 E10.32059
G1 X170.901 Y112.518 E10.33436
G1 X171.317 Y112.712 E10.34126
G1 X171.694 Y112.975 E10.34818
G1 X172.019 Y113.299 E10.35509
G1 X172.283 Y113.675 E10.362
G1 X172.478 Y114.09 E10.3689
G1 X172.598 Y114.533 E10.37581
G1 X172.64 Y115 E10.38286
G1 X172.64 Y125 E10.53335
G1 X172.6 Y125.457 E10.54025
G1 X172.482 Y125.901 E10.54717
G1 X172.288 Y126.317 E10.55407
M204 S625
G0 F3600 X171.81 Y126.179
M204 S500
G1 F1200 X171.551 Y126.504 E10.56033
G1 X171.234 Y126.773 E10.56658
G1 X170.872 Y126.976 E10.57283
G1 X170.478 Y127.106 E10.57907
G1 X170 Y127.16 E10.58631
G1 X160 Y127.16 E10.7368
G1 X159.587 Y127.12 E10.74304
G1 X159.189 Y127.002 E10.74929
G1 X158.821 Y126.81 E10.75553
G1 X158.496 Y126.551 E10.76179
G1 X158.227 Y126.234 E10.76804
G1 X158.024 Y125.872 E10.77429
G1 X157.894 Y125.478 E10.78053
G1 X157.84 Y125 E10.78777
G1 X157.84 Y115 E10.93826
G1 X157.88 Y114.587 E10.9445
G1 X157.998 Y114.189 E10.95075
G1 X158.19 Y113.821 E10.95699
G1 X158.449 Y113.496 E10.96325
G1 X158.766 Y113.227 E10.9695
G1 X159.128 Y113.024 E10.97575
G1 X159.522 Y112.894 E10.98199
G1 X160 Y112.84 E10.98923
G1 X170 Y112.84 E11.13972
G1 X170.811 Y112.998 E11.15215
G1 X171.179 Y113.19 E11.1584
G1 X171.504 Y113.449 E11.16465
G1 X171.773 Y113.766 E11.17091
G1 X171.976 Y114.128 E11.17715
G1 X172.106 Y114.522 E11.1834
G1 X172.16 Y115 E11.19063
G1 X172.16 Y125 E11.34112
G1 X172.12 Y125.413 E11.34736
G1 X172.002 Y125.811 E11.35361
G1 X171.81 Y126.179 E11.35986
M204 S625
G0 F3600 X171.522 Y125.71
M204 S500
G1 F1200 X171.332 Y126.023 E11.36537
G1 X171.079 Y126.288 E11.37088
G1 X170.775 Y126.491 E11.37638
G1 X170.433 Y126.623 E11.3819
G1 X170 Y126.68 E11.38847
G1 X160 Y126.68 E11.53895
G1 X159.636 Y126.64 E11.54446
G1 X159.29 Y126.522 E11.54997
G1 X158.977 Y126.332 E11.55548
G1 X158.712 Y126.079 E11.56099
G1 X158.509 Y125.775 E11.56649
G1 X158.377 Y125.433 E11.57201
G1 X158.32 Y125 E11.57858
G1 X158.32 Y115 E11.72906
G1 X158.36 Y114.636 E11.73457
G1 X158.478 Y114.29 E11.74007
G1 X158.668 Y113.977 E11.74558
G1 X158.921 Y113.712 E11.7511
G1 X159.225 Y113.509 E11.7566
G1 X159.567 Y113.377 E11.76212
G1 X160 Y113.32 E11.76869
G1 X170 Y113.32 E11.91917
G1 X170.71 Y113.478 E11.93012
G1 X171.023 Y113.668 E11.93563
G1 X171.288 Y113.921 E11.94114
G1 X171.491 Y114.225 E11.94664
G1 X171.623 Y114.567 E11.95216
G1 X171.68 Y115 E11.95873
G1 X171.68 Y125 E12.10922
G1 X171.64 Y125.364 E12.11473
G1 X171.522 Y125.71 E12.12023
M204 S625
G0 F3600 X171.043 Y125.593
M204 S500
G1 F1200 X170.857 Y125.84 E12.12488
G1 X170.614 Y126.031 E12.12953
G1 X170.33 Y126.154 E12.13419
G1 X170 Y126.2 E12.1392
G1 X160 Y126.2 E12.28969
G1 X159.693 Y126.16 E12.29435
G1 X159.407 Y126.043 E12.299
G1 X159.16 Y125.857 E12.30365
G1 X158.969 Y125.614 E12.3083
G1 X158.846 Y125.33 E12.31296
G1 X158.8 Y125 E12.31797
G1 X158.8 Y115 E12.46846
G1 X158.84 Y114.693 E12.47312
G1 X158.957 Y114.407 E12.47777
G1 X159.143 Y114.16 E12.48242
G1 X159.386 Y113.969 E12.48707
G1 X159.67 Y113.846 E12.49173
G1 X160 Y113.8 E12.49674
G1 X170 Y113.8 E12.64723
G1 X170.593 Y113.957 E12.65646
G1 X170.84 Y114.143 E12.66111
G1 X171.031 Y114.386 E12.66576
G1 X171.154 Y114.67 E12.67042
G1 X171.2 Y115 E12.67543
G1 X171.2 Y125 E12.82592
G1 X171.16 Y125.307 E12.83058
G1 X171.043 Y125.593 E12.83523
M204 S625
G0 F3600 X170.565 Y125.446
M204 S500
G1 F1200 X170.388 Y125.606 E12.83882
G1 X170.168 Y125.7 E12.84242
G1 X160 Y125.72 E12.99543
G1 X159.764 Y125.68 E12.99903
G1 X159.554 Y125.565 E13.00263
G1 X159.394 Y125.388 E13.00623
G1 X159.3 Y125.168 E13.00983
G1 X159.28 Y115 E13.16284
G1 X159.32 Y114.764 E13.16644
G1 X159.435 Y114.554 E13.17004
G1 X159.612 Y114.394 E13.17363
G1 X159.832 Y114.3 E13.17723
G1 X170 Y114.28 E13.33025
G1 X170.446 Y114.435 E13.33735
G1 X170.606 Y114.612 E13.34094
G1 X170.7 Y114.832 E13.34454
G1 X170.72 Y125 E13.49756
G1 X170.68 Y125.236 E13.50116
G1 X170.565 Y125.446 E13.50476
M204 S625
G0 F3600 X170.201 Y125.131
M204 S500
G1 F1200 X170.096 Y125.22 E13.50683
G1 X160 Y125.24 E13.65876
G1 X159.869 Y125.201 E13.66082
G1 X159.78 Y125.096 E13.66289
G1 X159.76 Y115 E13.81482
G1 X159.799 Y114.869 E13.81688
G1 X159.904 Y114.78 E13.81895
G1 X170 Y114.76 E13.97088
G1 X170.22 Y114.904 E13.97483
G1 X170.24 Y125 E14.12676
G1 X170.201 Y125.131 E14.12882
M204 S625
G1 F1500 E7.62882
;MESH:cube.stl
G0 F3600 X169.266 Y124.266
G0 X160.79 Y124.21
G0 X160.24 Y124.76
M204 S500
;TYPE:WALL-OUTER
G1 F1500 E14.12882
G1 F1200 X160.24 Y115.24 E14.27208
G1 X169.76 Y115.24 E14.41534
G1 X169.76 Y124.76 E14.5586
G1 X160.24 Y124.76 E14.70186
M204 S625
G0 F3600 X160.24 Y124.56
G0 X160.768 Y124.232
G0 X160.72 Y124.28
M204 S500
;TYPE:WALL-INNER
G1 F1200 X160.72 Y115.72 E14.83068
G1 X169.28 Y115.72 E14.95949
G1 X169.28 Y124.28 E15.08831
G1 X160.72 Y124.28 E15.21712
M204 S625
G0 F3600 X161.455 Y124.119
M204 S500
;TYPE:SKIN
G1 F1200 X160.878 Y123.543 E15.22939
M204 S625
G0 F3600 X160.878 Y122.864
M204 S500
G1 F1200 X162.133 Y124.119 E15.2561
M204 S625
G0 F3600 X162.812 Y124.119
M204 S500
G1 F1200 X160.878 Y122.185 E15.29726
M204 S625
G0 F3600 X160.878 Y121.507
M204 S500
G1 F1200 X163.491 Y124.119 E15.35286
M204 S625
G0 F3600 X164.17 Y124.119
M204 S500
G1 F1200 X160.878 Y120.828 E15.42291
M204 S625
G0 F3600 X160.878 Y120.149
M204 S500
G1 F1200 X164.849 Y124.119 E15.50741
M204 S625
G0 F3600 X165.528 Y124.119
M204 S500
G1 F1200 X160.878 Y119.47 E15.60636
M204 S625
G0 F3600 X160.878 Y118.791
M204 S500
G1 F1200 X166.206 Y124.119 E15.71974
M204 S625
G0 F3600 X166.885 Y124.119
M204 S500
G1 F1200 X160.878 Y118.112 E15.84758
M204 S625
G0 F3600 X160.878 Y117.434
M204 S500
G1 F1200 X167.564 Y124.119 E15.98986
M204 S625
G0 F3600 X168.243 Y124.119
M204 S500
G1 F1200 X160.878 Y116.755 E16.14659
M204 S625
G0 F3600 X160.878 Y116.076
M204 S500
G1 F1200 X168.922 Y124.119 E16.31777
M204 S625
G0 F3600 X169.119 Y123.638
M204 S500
G1 F1200 X161.361 Y115.879 E16.48289
M204 S625
G0 F3600 X162.039 Y115.879
M204 S500
G1 F1200 X169.119 Y122.959 E16.63356
M204 S625
G0 F3600 X169.119 Y122.28
M204 S500
G1 F1200 X162.718 Y115.879 E16.76978
M204 S625
G0 F3600 X163.397 Y115.879
M204 S500
G1 F1200 X169.119 Y121.601 E16.89156
M204 S625
G0 F3600 X169.119 Y120.923
M204 S500
G1 F1200 X164.076 Y115.879 E16.99889
M204 S625
G0 F3600 X164.755 Y115.879
M204 S500
G1 F1200 X169.119 Y120.244 E17.09178
M204 S625
G0 F3600 X169.119 Y119.565
M204 S500
G1 F1200 X165.433 Y115.879 E17.17022
M204 S625
G0 F3600 X166.112 Y115.879
M204 S500
G1 F1200 X169.119 Y118.886 E17.23422
M204 S625
G0 F3600 X169.119 Y118.207
M204 S500
G1 F1200 X166.791 Y115.879 E17.28376
M204 S625
G0 F3600 X167.47 Y115.879
M204 S500
G1 F1200 X169.119 Y117.528 E17.31885
M204 S625
G0 F3600 X169.119 Y116.85
M204 S500
G1 F1200 X168.149 Y115.879 E17.33951
M204 S625
G0 F3600 X168.828 Y115.879
M204 S500
G1 F1200 X169.119 Y116.171 E17.34571
M204 S625
G0 F3600 X168.8 Y116.2
;MESH:NONMESH
G0 F600 X168.8 Y116.2 Z0.4
G0 F3600 X160.79 Y124.21
G0 X160.6 Y124.4
;TIME_ELAPSED:67.347952
;LAYER:1
M140 S60
M106 S85
M204 S750
M205 X17.5 Y17.5
;TYPE:WALL-INNER
;MESH:cube.stl
G1 F2100 X160.6 Y115.6 E17.45607
G1 X169.4 Y115.6 E17.56642
G1 X169.4 Y124.4 E17.67678
G1 X160.6 Y124.4 E17.78713
M204 S2812
G0 F6300 X160.2 Y124.8
M204 S500
;TYPE:WALL-OUTER
G1 F2100 X160.2 Y115.2 E17.90752
G1 X169.8 Y115.2 E18.02791
G1 X169.8 Y124.8 E18.14829
G1 X160.2 Y124.8 E18.26868
M204 S2812
G0 F6300 X160.2 Y124.6
G0 X160.64 Y124.36
G0 X160.7 Y124.36
G0 X160.9 Y115.72
M204 S500
;TYPE:SKIN
G1 F2100 X160.719 Y115.901 E18.27189
M204 S2812
G0 F6300 X160.719 Y116.466
M204 S500
G1 F2100 X161.465 Y115.72 E18.28512
M204 S2812
G0 F6300 X162.031 Y115.72
M204 S500
G1 F2100 X160.719 Y117.032 E18.30839
M204 S2812
G0 F6300 X160.719 Y117.598
M204 S500
G1 F2100 X162.597 Y115.72 E18.3417
M204 S2812
G0 F6300 X163.162 Y115.72
M204 S500
G1 F2100 X160.719 Y118.163 E18.38502
M204 S2812
G0 F6300 X160.719 Y118.729
M204 S500
G1 F2100 X163.728 Y115.72 E18.43839
M204 S2812
G0 F6300 X164.294 Y115.72
M204 S500
G1 F2100 X160.719 Y119.295 E18.50179
M204 S2812
G0 F6300 X160.719 Y119.86
M204 S500
G1 F2100 X164.859 Y115.72 E18.57521
M204 S2812
G0 F6300 X165.425 Y115.72
M204 S500
G1 F2100 X160.719 Y120.426 E18.65867
M204 S2812
G0 F6300 X160.719 Y120.992
M204 S500
G1 F2100 X165.991 Y115.72 E18.75217
M204 S2812
G0 F6300 X166.556 Y115.72
M204 S500
G1 F2100 X160.719 Y121.558 E18.85569
M204 S2812
G0 F6300 X160.719 Y122.123
M204 S500
G1 F2100 X167.122 Y115.72 E18.96925
M204 S2812
G0 F6300 X167.688 Y115.72
M204 S500
G1 F2100 X160.719 Y122.689 E19.09284
M204 S2812
G0 F6300 X160.719 Y123.255
M204 S500
G1 F2100 X168.253 Y115.72 E19.22646
M204 S2812
G0 F6300 X168.819 Y115.72
M204 S500
G1 F2100 X160.719 Y123.82 E19.37012
M204 S2812
G0 F6300 X160.825 Y124.28
M204 S500
G1 F2100 X169.279 Y115.826 E19.52005
M204 S2812
G0 F6300 X169.279 Y116.391
M204 S500
G1 F2100 X161.39 Y124.28 E19.65996
M204 S2812
G0 F6300 X161.956 Y124.28
M204 S500
G1 F2100 X169.279 Y116.957 E19.78983
M204 S2812
G0 F6300 X169.279 Y117.523
M204 S500
G1 F2100 X162.522 Y124.28 E19.90966
M204 S2812
G0 F6300 X163.087 Y124.28
M204 S500
G1 F2100 X169.279 Y118.088 E20.01947
M204 S2812
G0 F6300 X169.279 Y118.654
M204 S500
G1 F2100 X163.653 Y124.28 E20.11925
M204 S2812
G0 F6300 X164.219 Y124.28
M204 S500
G1 F2100 X169.279 Y119.22 E20.20899
M204 S2812
G0 F6300 X169.279 Y119.786
M204 S500
G1 F2100 X164.784 Y124.28 E20.2887
M204 S2812
G0 F6300 X165.35 Y124.28
M204 S500
G1 F2100 X169.279 Y120.351 E20.35838
M204 S2812
G0 F6300 X169.279 Y120.917
M204 S500
G1 F2100 X165.916 Y124.28 E20.41802
M204 S2812
G0 F6300 X166.481 Y124.28
M204 S500
G1 F2100 X169.279 Y121.483 E20.46763
M204 S2812
G0 F6300 X169.279 Y122.048
M204 S500
G1 F2100 X167.047 Y124.28 E20.50722
M204 S2812
G0 F6300 X167.613 Y124.28
M204 S500
G1 F2100 X169.279 Y122.614 E20.53676
M204 S2812
G0 F6300 X169.279 Y123.18
M204 S500
G1 F2100 X168.178 Y124.28 E20.55628
M204 S2812
G0 F6300 X168.744 Y124.28
M204 S500
G1 F2100 X169.279 Y123.745 E20.56577
M204 S2812
G0 F6300 X169 Y123.745
;MESH:NONMESH
G0 F600 X169 Y123.745 Z0.6
G0 F6300 X160.67 Y124.33
G0 X160.6 Y124.4
;TIME_ELAPSED:76.828188
;LAYER:2
M106 S170
M204 S1000
M205 X30 Y30
;TYPE:WALL-INNER
;MESH:cube.stl
G1 F3000 X160.6 Y115.6 E20.67612
G1 X169.4 Y115.6 E20.78648
G1 X169.4 Y124.4 E20.89683
G1 X160.6 Y124.4 E21.00719
M204 S5000
G0 F9000 X160.2 Y124.8
M204 S500
;TYPE:WALL-OUTER
G1 F3000 X160.2 Y115.2 E21.12758
G1 X169.8 Y115.2 E21.24796
G1 X169.8 Y124.8 E21.36835
G1 X160.2 Y124.8 E21.48874
M204 S5000
G0 F9000 X160.2 Y124.6
G0 X160.64 Y124.36
G0 X161.049 Y124.28
M204 S500
;TYPE:SKIN
G1 F3000 X160.719 Y123.949 E21.4946
M204 S5000
G0 F9000 X160.719 Y123.383
M204 S500
G1 F3000 X161.615 Y124.28 E21.5105
M204 S5000
G0 F9000 X162.181 Y124.28
M204 S500
G1 F3000 X160.719 Y122.818 E21.53643
M204 S5000
G0 F9000 X160.719 Y122.252
M204 S500
G1 F3000 X162.746 Y124.28 E21.57238
M204 S5000
G0 F9000 X163.312 Y124.28
M204 S500
G1 F3000 X160.719 Y121.686 E21.61838
M204 S5000
G0 F9000 X160.719 Y121.121
M204 S500
G1 F3000 X163.878 Y124.28 E21.6744
M204 S5000
G0 F9000 X164.444 Y124.28
M204 S500
G1 F3000 X160.719 Y120.555 E21.74047
M204 S5000
G0 F9000 X160.719 Y119.989
M204 S500
G1 F3000 X165.009 Y124.28 E21.81656
M204 S5000
G0 F9000 X165.575 Y124.28
M204 S500
G1 F3000 X160.719 Y119.423 E21.90269
M204 S5000
G0 F9000 X160.719 Y118.858
M204 S500
G1 F3000 X166.141 Y124.28 E21.99884
M204 S5000
G0 F9000 X166.706 Y124.28
M204 S500
G1 F3000 X160.719 Y118.292 E22.10503
M204 S5000
G0 F9000 X160.719 Y117.726
M204 S500
G1 F3000 X167.272 Y124.28 E22.22126
M204 S5000
G0 F9000 X167.838 Y124.28
M204 S500
G1 F3000 X160.719 Y117.161 E22.34751
M204 S5000
G0 F9000 X160.719 Y116.595
M204 S500
G1 F3000 X168.403 Y124.28 E22.48379
M204 S5000
G0 F9000 X168.969 Y124.28
M204 S500
G1 F3000 X160.719 Y116.029 E22.63011
M204 S5000
G0 F9000 X160.974 Y115.72
M204 S500
G1 F3000 X169.279 Y124.024 E22.77739
M204 S5000
G0 F9000 X169.279 Y123.458
M204 S500
G1 F3000 X161.54 Y115.72 E22.91463
M204 S5000
G0 F9000 X162.106 Y115.72
M204 S500
G1 F3000 X169.279 Y122.893 E23.04184
M204 S5000
G0 F9000 X169.279 Y122.327
M204 S500
G1 F3000 X162.672 Y115.72 E23.15902
M204 S5000
G0 F9000 X163.237 Y115.72
M204 S500
G1 F3000 X169.279 Y121.761 E23.26616
M204 S5000
G0 F9000 X169.279 Y121.195
M204 S500
G1 F3000 X163.803 Y115.72 E23.36327
M204 S5000
G0 F9000 X164.369 Y115.72
M204 S500
G1 F3000 X169.279 Y120.63 E23.45035
M204 S5000
G0 F9000 X169.279 Y120.064
M204 S500
G1 F3000 X164.934 Y115.72 E23.52739
M204 S5000
G0 F9000 X165.5 Y115.72
M204 S500
G1 F3000 X169.279 Y119.498 E23.59441
M204 S5000
G0 F9000 X169.279 Y118.933
M204 S500
G1 F3000 X166.066 Y115.72 E23.65139
M204 S5000
G0 F9000 X166.631 Y115.72
M204 S500
G1 F3000 X169.279 Y118.367 E23.69834
M204 S5000
G0 F9000 X169.279 Y117.801
M204 S500
G1 F3000 X167.197 Y115.72 E23.73525
M204 S5000
G0 F9000 X167.763 Y115.72
M204 S500
G1 F3000 X169.279 Y117.236 E23.76214
M204 S5000
G0 F9000 X169.279 Y116.67
M204 S500
G1 F3000 X168.328 Y115.72 E23.779
M204 S5000
G0 F9000 X168.894 Y115.72
M204 S500
G1 F3000 X169.279 Y116.104 E23.78582
M204 S5000
G0 F9000 X169 Y116.104
;MESH:NONMESH
G0 F600 X169 Y116.104 Z0.8
G0 F9000 X160.67 Y124.33
G0 X160.6 Y124.4
;TIME_ELAPSED:83.967802
;LAYER:3
M106 S255
M204 S1000
;TYPE:WALL-INNER
;MESH:cube.stl
G1 F3000 X160.6 Y115.6 E23.89617
G1 X169.4 Y115.6 E24.00653
G1 X169.4 Y124.4 E24.11688
G1 X160.6 Y124.4 E24.22724
M204 S5000
G0 F9000 X160.2 Y124.8
M204 S500
;TYPE:WALL-OUTER
G1 F3000 X160.2 Y115.2 E24.34762
G1 X169.8 Y115.2 E24.46801
G1 X169.8 Y124.8 E24.5884
G1 X160.2 Y124.8 E24.70879
M204 S5000
G0 F9000 X160.2 Y124.6
G0 X160.64 Y124.36
G0 X160.7 Y124.36
G0 X160.9 Y115.72
M204 S500
;TYPE:SKIN
G1 F3000 X160.719 Y115.901 E24.712
M204 S5000
G0 F9000 X160.719 Y116.466
M204 S500
G1 F3000 X161.465 Y115.72 E24.72523
M204 S5000
G0 F9000 X162.031 Y115.72
M204 S500
G1 F3000 X160.719 Y117.032 E24.7485
M204 S5000
G0 F9000 X160.719 Y117.598
M204 S500
G1 F3000 X162.597 Y115.72 E24.7818
M204 S5000
G0 F9000 X163.162 Y115.72
M204 S500
G1 F3000 X160.719 Y118.163 E24.82513
M204 S5000
G0 F9000 X160.719 Y118.729
M204 S500
G1 F3000 X163.728 Y115.72 E24.87849
M204 S5000
G0 F9000 X164.294 Y115.72
M204 S500
G1 F3000 X160.719 Y119.295 E24.94189
M204 S5000
G0 F9000 X160.719 Y119.86
M204 S500
G1 F3000 X164.859 Y115.72 E25.01532
M204 S5000
G0 F9000 X165.425 Y115.72
M204 S500
G1 F3000 X160.719 Y120.426 E25.09878
M204 S5000
G0 F9000 X160.719 Y120.992
M204 S500
G1 F3000 X165.991 Y115.72 E25.19227
M204 S5000
G0 F9000 X166.556 Y115.72
M204 S500
G1 F3000 X160.719 Y121.558 E25.2958
M204 S5000
G0 F9000 X160.719 Y122.123
M204 S500
G1 F3000 X167.122 Y115.72 E25.40936
M204 S5000
G0 F9000 X167.688 Y115.72
M204 S500
G1 F3000 X160.719 Y122.689 E25.53295
M204 S5000
G0 F9000 X160.719 Y123.255
M204 S500
G1 F3000 X168.253 Y115.72 E25.66657
M204 S5000
G0 F9000 X168.819 Y115.72
M204 S500
G1 F3000 X160.719 Y123.82 E25.81022
M204 S5000
G0 F9000 X160.825 Y124.28
M204 S500
G1 F3000 X169.279 Y115.826 E25.96015
M204 S5000
G0 F9000 X169.279 Y116.391
M204 S500
G1 F3000 X161.39 Y124.28 E26.10006
M204 S5000
G0 F9000 X161.956 Y124.28
M204 S500
G1 F3000 X169.279 Y116.957 E26.22993
M204 S5000
G0 F9000 X169.279 Y117.523
M204 S500
G1 F3000 X162.522 Y124.28 E26.34977
M204 S5000
G0 F9000 X163.087 Y124.28
M204 S500
G1 F3000 X169.279 Y118.088 E26.45958
M204 S5000
G0 F9000 X169.279 Y118.654
M204 S500
G1 F3000 X163.653 Y124.28 E26.55936
M204 S5000
G0 F9000 X164.219 Y124.28
M204 S500
G1 F3000 X169.279 Y119.22 E26.64909
M204 S5000
G0 F9000 X169.279 Y119.786
M204 S500
G1 F3000 X164.784 Y124.28 E26.7288
M204 S5000
G0 F9000 X165.35 Y124.28
M204 S500
G1 F3000 X169.279 Y120.351 E26.79848
M204 S5000
G0 F9000 X169.279 Y120.917
M204 S500
G1 F3000 X165.916 Y124.28 E26.85813
M204 S5000
G0 F9000 X166.481 Y124.28
M204 S500
G1 F3000 X169.279 Y121.483 E26.90774
M204 S5000
G0 F9000 X169.279 Y122.048
M204 S500
G1 F3000 X167.047 Y124.28 E26.94732
M204 S5000
G0 F9000 X167.613 Y124.28
M204 S500
G1 F3000 X169.279 Y122.614 E26.97687
M204 S5000
G0 F9000 X169.279 Y123.18
M204 S500
G1 F3000 X168.178 Y124.28 E26.99639
M204 S5000
G0 F9000 X168.744 Y124.28
M204 S500
G1 F3000 X169.279 Y123.745 E27.00587
M204 S5000
G0 F9000 X169 Y123.745
;MESH:NONMESH
G0 F600 X169 Y123.745 Z1
G0 F9000 X169 Y124
;TIME_ELAPSED:91.086810
;LAYER:4
M204 S4000
;TYPE:FILL
;MESH:cube.stl
G1 F1471.2 X168.998 Y118.928 E27.06948
G1 X160.999 Y121.071 E27.17333
G1 X161 Y124 E27.21006
G1 X163.928 Y123.999 E27.24678
G1 X166.072 Y115.998 E27.35065
M204 S5000
G0 F9000 X169 Y116
M204 S4000
G1 F1471.2 X161 Y116 E27.45097
M204 S5000
G0 F9000 X160.999 Y116
M204 S4000
G1 F1471.2 X168.999 Y124 E27.59285
M204 S5000
G0 F9000 X160.67 Y124.33
G0 X160.6 Y124.4
M204 S1000
;TYPE:WALL-INNER
G1 F1471.2 X160.6 Y115.6 E27.70321
G1 X169.4 Y115.6 E27.81356
G1 X169.4 Y124.4 E27.92392
G1 X160.6 Y124.4 E28.03427
M204 S5000
G0 F9000 X160.2 Y124.8
M204 S500
;TYPE:WALL-OUTER
G1 F1471.2 X160.2 Y115.2 E28.15466
G1 X169.8 Y115.2 E28.27505
G1 X169.8 Y124.8 E28.39544
G1 X160.2 Y124.8 E28.51582
M204 S5000
G0 F9000 X160.2 Y124.6
G0 X160.64 Y124.36
G0 X161 Y124
;MESH:NONMESH
G0 F600 X161 Y124 Z1.2
G0 F9000 X169 Y124
;TIME_ELAPSED:96.345244
;LAYER:5
M204 S4000
;TYPE:FILL
;MESH:cube.stl
G1 F1486.8 X168.998 Y118.928 E28.57943
G1 X160.999 Y121.071 E28.68328
G1 X161 Y124 E28.72001
G1 X163.928 Y123.999 E28.75673
G1 X166.072 Y115.998 E28.8606
M204 S5000
G0 F9000 X169 Y116
M204 S4000
G1 F1486.8 X161 Y116 E28.96092
M204 S5000
G0 F9000 X160.999 Y116
M204 S4000
G1 F1486.8 X168.999 Y124 E29.1028
M204 S5000
G0 F9000 X160.67 Y124.33
G0 X160.6 Y124.4
M204 S1000
;TYPE:WALL-INNER
G1 F1486.8 X160.6 Y115.6 E29.21316
G1 X169.4 Y115.6 E29.32351
G1 X169.4 Y124.4 E29.43387
G1 X160.6 Y124.4 E29.54422
M204 S5000
G0 F9000 X160.2 Y124.8
M204 S500
;TYPE:WALL-OUTER
G1 F1486.8 X160.2 Y115.2 E29.66461
G1 X169.8 Y115.2 E29.785
G1 X169.8 Y124.8 E29.90539
G1 X160.2 Y124.8 E30.02577
M204 S5000
G0 F9000 X160.2 Y124.6
G0 X160.64 Y124.36
G0 X161 Y124
;MESH:NONMESH
G0 F600 X161 Y124 Z1.4
G0 F9000 X169 Y124
;TIME_ELAPSED:101.552905
;LAYER:6
M204 S4000
;TYPE:FILL
;MESH:cube.stl
G1 F1486.8 X168.998 Y118.928 E30.08938
G1 X160.999 Y121.071 E30.19323
G1 X161 Y124 E30.22996
G1 X163.928 Y123.999 E30.26667
G1 X166.072 Y115.998 E30.37055
M204 S5000
G0 F9000 X169 Y116
M204 S4000
G1 F1486.8 X161 Y116 E30.47087
M204 S5000
G0 F9000 X160.999 Y116
M204 S4000
G1 F1486.8 X168.999 Y124 E30.61275
M204 S5000
G0 F9000 X160.67 Y124.33
G0 X160.6 Y124.4
M204 S1000
;TYPE:WALL-INNER
G1 F1486.8 X160.6 Y115.6 E30.72311
G1 X169.4 Y115.6 E30.83346
G1 X169.4 Y124.4 E30.94382
G1 X160.6 Y124.4 E31.05417
M204 S5000
G0 F9000 X160.2 Y124.8
M204 S500
;TYPE:WALL-OUTER
G1 F1486.8 X160.2 Y115.2 E31.17456
G1 X169.8 Y115.2 E31.29495
G1 X169.8 Y124.8 E31.41533
G1 X160.2 Y124.8 E31.53572
M204 S5000
G0 F9000 X160.2 Y124.6
G0 X160.64 Y124.36
G0 X161 Y124
;MESH:NONMESH
G0 F600 X161 Y124 Z1.6
G0 F9000 X169 Y124
;TIME_ELAPSED:106.760566
;LAYER:7
M204 S4000
;TYPE:FILL
;MESH:cube.stl
G1 F1486.8 X168.998 Y118.928 E31.59933
G1 X160.999 Y121.071 E31.70317
G1 X161 Y124 E31.73991
G1 X163.928 Y123.999 E31.77662
G1 X166.072 Y115.998 E31.8805
M204 S5000
G0 F9000 X169 Y116
M204 S4000
G1 F1486.8 X161 Y116 E31.98082
M204 S5000
G0 F9000 X160.999 Y116
M204 S4000
G1 F1486.8 X168.999 Y124 E32.1227
M204 S5000
G0 F9000 X160.67 Y124.33
G0 X160.6 Y124.4
M204 S1000
;TYPE:WALL-INNER
G1 F1486.8 X160.6 Y115.6 E32.23306
G1 X169.4 Y115.6 E32.34341
G1 X169.4 Y124.4 E32.45377
G1 X160.6 Y124.4 E32.56412
M204 S5000
G0 F9000 X160.2 Y124.8
M204 S500
;TYPE:WALL-OUTER
G1 F1486.8 X160.2 Y115.2 E32.68451
G1 X169.8 Y115.2 E32.8049
G1 X169.8 Y124.8 E32.92528
G1 X160.2 Y124.8 E33.04567
M204 S5000
G0 F9000 X160.2 Y124.6
G0 X160.64 Y124.36
G0 X161 Y124
;MESH:NONMESH
G0 F600 X161 Y124 Z1.8
G0 F9000 X169 Y124
;TIME_ELAPSED:111.968227
;LAYER:8
M204 S4000
;TYPE:FILL
;MESH:cube.stl
G1 F1486.8 X168.998 Y118.928 E33.10928
G1 X160.999 Y121.071 E33.21312
G1 X161 Y124 E33.24986
G1 X163.928 Y123.999 E33.28657
G1 X166.072 Y115.998 E33.39045
M204 S5000
G0 F9000 X169 Y116
M204 S4000
G1 F1486.8 X161 Y116 E33.49077
M204 S5000
G0 F9000 X160.999 Y116
M204 S4000
G1 F1486.8 X168.999 Y124 E33.63265
M204 S5000
G0 F9000 X160.67 Y124.33
G0 X160.6 Y124.4
M204 S1000
;TYPE:WALL-INNER
G1 F1486.8 X160.6 Y115.6 E33.74301
G1 X169.4 Y115.6 E33.85336
G1 X169.4 Y124.4 E33.96372
G1 X160.6 Y124.4 E34.07407
M204 S5000
G0 F9000 X160.2 Y124.8
M204 S500
;TYPE:WALL-OUTER
G1 F1486.8 X160.2 Y115.2 E34.19446
G1 X169.8 Y115.2 E34.31485
G1 X169.8 Y124.8 E34.43523
G1 X160.2 Y124.8 E34.55562
M204 S5000
G0 F9000 X160.2 Y124.6
G0 X160.64 Y124.36
G0 X161 Y124
;MESH:NONMESH
G0 F600 X161 Y124 Z2
G0 F9000 X169 Y124
;TIME_ELAPSED:117.175888
;LAYER:9
M204 S4000
;TYPE:FILL
;MESH:cube.stl
G1 F1486.8 X168.998 Y118.928 E34.61923
G1 X160.999 Y121.071 E34.72307
G1 X161 Y124 E34.7598
G1 X163.928 Y123.999 E34.79652
G1 X166.072 Y115.998 E34.9004
M204 S5000
G0 F9000 X169 Y116
M204 S4000
G1 F1486.8 X161 Y116 E35.00072
M204 S5000
G0 F9000 X160.999 Y116
M204 S4000
G1 F1486.8 X168.999 Y124 E35.1426
M204 S5000
G0 F9000 X160.67 Y124.33
G0 X160.6 Y124.4
M204 S1000
;TYPE:WALL-INNER
G1 F1486.8 X160.6 Y115.6 E35.25295
G1 X169.4 Y115.6 E35.36331
G1 X169.4 Y124.4 E35.47367
G1 X160.6 Y124.4 E35.58402
M204 S5000
G0 F9000 X160.2 Y124.8
M204 S500
;TYPE:WALL-OUTER
G1 F1486.8 X160.2 Y115.2 E35.70441
G1 X169.8 Y115.2 E35.8248
G1 X169.8 Y124.8 E35.94518
G1 X160.2 Y124.8 E36.06557
M204 S5000
G0 F9000 X160.2 Y124.6
G0 X160.64 Y124.36
G0 X161 Y124
;MESH:NONMESH
G0 F600 X161 Y124 Z2.2
G0 F9000 X169 Y124
;TIME_ELAPSED:122.383549
;LAYER:10
M204 S4000
;TYPE:FILL
;MESH:cube.stl
G1 F1486.8 X168.998 Y118.928 E36.12918
G1 X160.999 Y121.071 E36.23302
G1 X161 Y124 E36.26975
G1 X163.928 Y123.999 E36.30647
G1 X166.072 Y115.998 E36.41035
M204 S5000
G0 F9000 X169 Y116
M204 S4000
G1 F1486.8 X161 Y116 E36.51067
M204 S5000
G0 F9000 X160.999 Y116
M204 S4000
G1 F1486.8 X168.999 Y124 E36.65255
M204 S5000
G0 F9000 X160.67 Y124.33
G0 X160.6 Y124.4
M204 S1000
;TYPE:WALL-INNER
G1 F1486.8 X160.6 Y115.6 E36.7629
G1 X169.4 Y115.6 E36.87326
G1 X169.4 Y124.4 E36.98361
G1 X160.6 Y124.4 E37.09397
M204 S5000
G0 F9000 X160.2 Y124.8
M204 S500
;TYPE:WALL-OUTER
G1 F1486.8 X160.2 Y115.2 E37.21436
G1 X169.8 Y115.2 E37.33474
G1 X169.8 Y124.8 E37.45513
G1 X160.2 Y124.8 E37.57552
M204 S5000
G0 F9000 X160.2 Y124.6
G0 X160.64 Y124.36
G0 X161 Y124
;MESH:NONMESH
G0 F600 X161 Y124 Z2.4
G0 F9000 X169 Y124
;TIME_ELAPSED:127.591211
;LAYER:11
M204 S4000
;TYPE:FILL
;MESH:cube.stl
G1 F1486.8 X168.998 Y118.928 E37.63912
G1 X160.999 Y121.071 E37.74297
G1 X161 Y124 E37.7797
G1 X163.928 Y123.999 E37.81642
G1 X166.072 Y115.998 E37.9203
M204 S5000
G0 F9000 X169 Y116
M204 S4000
G1 F1486.8 X161 Y116 E38.02062
M204 S5000
G0 F9000 X160.999 Y116
M204 S4000
G1 F1486.8 X168.999 Y124 E38.1625
M204 S5000
G0 F9000 X160.67 Y124.33
G0 X160.6 Y124.4
M204 S1000
;TYPE:WALL-INNER
G1 F1486.8 X160.6 Y115.6 E38.27285
G1 X169.4 Y115.6 E38.38321
G1 X169.4 Y124.4 E38.49356
G1 X160.6 Y124.4 E38.60392
M204 S5000
G0 F9000 X160.2 Y124.8
M204 S500
;TYPE:WALL-OUTER
G1 F1486.8 X160.2 Y115.2 E38.72431
G1 X169.8 Y115.2 E38.84469
G1 X169.8 Y124.8 E38.96508
G1 X160.2 Y124.8 E39.08547
M204 S5000
G0 F9000 X160.2 Y124.6
G0 X160.64 Y124.36
G0 X161 Y124
;MESH:NONMESH
G0 F600 X161 Y124 Z2.6
G0 F9000 X169 Y124
;TIME_ELAPSED:132.798872
;LAYER:12
M204 S4000
;TYPE:FILL
;MESH:cube.stl
G1 F1486.8 X168.998 Y118.928 E39.14907
G1 X160.999 Y121.071 E39.25292
G1 X161 Y124 E39.28965
G1 X163.928 Y123.999 E39.32637
G1 X166.072 Y115.998 E39.43025
M204 S5000
G0 F9000 X169 Y116
M204 S4000
G1 F1486.8 X161 Y116 E39.53057
M204 S5000
G0 F9000 X160.999 Y116
M204 S4000
G1 F1486.8 X168.999 Y124 E39.67245
M204 S5000
G0 F9000 X160.67 Y124.33
G0 X160.6 Y124.4
M204 S1000
;TYPE:WALL-INNER
G1 F1486.8 X160.6 Y115.6 E39.7828
G1 X169.4 Y115.6 E39.89316
G1 X169.4 Y124.4 E40.00351
G1 X160.6 Y124.4 E40.11387
M204 S5000
G0 F9000 X160.2 Y124.8
M204 S500
;TYPE:WALL-OUTER
G1 F1486.8 X160.2 Y115.2 E40.23426
G1 X169.8 Y115.2 E40.35464
G1 X169.8 Y124.8 E40.47503
G1 X160.2 Y124.8 E40.59542
M204 S5000
G0 F9000 X160.2 Y124.6
G0 X160.64 Y124.36
G0 X161 Y124
;MESH:NONMESH
G0 F600 X161 Y124 Z2.8
G0 F9000 X169 Y124
;TIME_ELAPSED:138.006533
;LAYER:13
M204 S4000
;TYPE:FILL
;MESH:cube.stl
G1 F1486.8 X168.998 Y118.928 E40.65902
G1 X160.999 Y121.071 E40.76287
G1 X161 Y124 E40.7996
G1 X163.928 Y123.999 E40.83632
G1 X166.072 Y115.998 E40.9402
M204 S5000
G0 F9000 X169 Y116
M204 S4000
G1 F1486.8 X161 Y116 E41.04052
M204 S5000
G0 F9000 X160.999 Y116
M204 S4000
G1 F1486.8 X168.999 Y124 E41.1824
M204 S5000
G0 F9000 X160.67 Y124.33
G0 X160.6 Y124.4
M204 S1000
;TYPE:WALL-INNER
G1 F1486.8 X160.6 Y115.6 E41.29275
G1 X169.4 Y115.6 E41.40311
G1 X169.4 Y124.4 E41.51346
G1 X160.6 Y124.4 E41.62382
M204 S5000
G0 F9000 X160.2 Y124.8
M204 S500
;TYPE:WALL-OUTER
G1 F1486.8 X160.2 Y115.2 E41.74421
G1 X169.8 Y115.2 E41.86459
G1 X169.8 Y124.8 E41.98498
G1 X160.2 Y124.8 E42.10537
M204 S5000
G0 F9000 X160.2 Y124.6
G0 X160.64 Y124.36
G0 X161 Y124
;MESH:NONMESH
G0 F600 X161 Y124 Z3
G0 F9000 X169 Y124
;TIME_ELAPSED:143.214194
;LAYER:14
M204 S4000
;TYPE:FILL
;MESH:cube.stl
G1 F1486.8 X168.998 Y118.928 E42.16897
G1 X160.999 Y121.071 E42.27282
G1 X161 Y124 E42.30955
G1 X163.928 Y123.999 E42.34627
G1 X166.072 Y115.998 E42.45015
M204 S5000
G0 F9000 X169 Y116
M204 S4000
G1 F1486.8 X161 Y116 E42.55047
M204 S5000
G0 F9000 X160.999 Y116
M204 S4000
G1 F1486.8 X168.999 Y124 E42.69235
M204 S5000
G0 F9000 X160.67 Y124.33
G0 X160.6 Y124.4
M204 S1000
;TYPE:WALL-INNER
G1 F1486.8 X160.6 Y115.6 E42.8027
G1 X169.4 Y115.6 E42.91306
G1 X169.4 Y124.4 E43.02341
G1 X160.6 Y124.4 E43.13377
M204 S5000
G0 F9000 X160.2 Y124.8
M204 S500
;TYPE:WALL-OUTER
G1 F1486.8 X160.2 Y115.2 E43.25416
G1 X169.8 Y115.2 E43.37454
G1 X169.8 Y124.8 E43.49493
G1 X160.2 Y124.8 E43.61532
M204 S5000
G0 F9000 X160.2 Y124.6
G0 X160.64 Y124.36
G0 X161 Y124
;MESH:NONMESH
G0 F600 X161 Y124 Z3.2
G0 F9000 X169 Y124
;TIME_ELAPSED:148.421855
;LAYER:15
M204 S4000
;TYPE:FILL
;MESH:cube.stl
G1 F1486.8 X168.998 Y118.928 E43.67892
G1 X160.999 Y121.071 E43.78277
G1 X161 Y124 E43.8195
G1 X163.928 Y123.999 E43.85622
G1 X166.072 Y115.998 E43.96009
M204 S5000
G0 F9000 X169 Y116
M204 S4000
G1 F1486.8 X161 Y116 E44.06042
M204 S5000
G0 F9000 X160.999 Y116
M204 S4000
G1 F1486.8 X168.999 Y124 E44.2023
M204 S5000
G0 F9000 X160.67 Y124.33
G0 X160.6 Y124.4
M204 S1000
;TYPE:WALL-INNER
G1 F1486.8 X160.6 Y115.6 E44.31265
G1 X169.4 Y115.6 E44.42301
G1 X169.4 Y124.4 E44.53336
G1 X160.6 Y124.4 E44.64372
M204 S5000
G0 F9000 X160.2 Y124.8
M204 S500
;TYPE:WALL-OUTER
G1 F1486.8 X160.2 Y115.2 E44.7641
G1 X169.8 Y115.2 E44.88449
G1 X169.8 Y124.8 E45.00488
G1 X160.2 Y124.8 E45.12527
M204 S5000
G0 F9000 X160.2 Y124.6
G0 X160.64 Y124.36
G0 X161 Y124
;MESH:NONMESH
G0 F600 X161 Y124 Z3.4
G0 F9000 X169 Y124
;TIME_ELAPSED:153.629516
;LAYER:16
M204 S4000
;TYPE:FILL
;MESH:cube.stl
G1 F1486.8 X168.998 Y118.928 E45.18887
G1 X160.999 Y121.071 E45.29272
G1 X161 Y124 E45.32945
G1 X163.928 Y123.999 E45.36617
G1 X166.072 Y115.998 E45.47004
M204 S5000
G0 F9000 X169 Y116
M204 S4000
G1 F1486.8 X161 Y116 E45.57037
M204 S5000
G0 F9000 X160.999 Y116
M204 S4000
G1 F1486.8 X168.999 Y124 E45.71225
M204 S5000
G0 F9000 X160.67 Y124.33
G0 X160.6 Y124.4
M204 S1000
;TYPE:WALL-INNER
G1 F1486.8 X160.6 Y115.6 E45.8226
G1 X169.4 Y115.6 E45.93296
G1 X169.4 Y124.4 E46.04331
G1 X160.6 Y124.4 E46.15367
M204 S5000
G0 F9000 X160.2 Y124.8
M204 S500
;TYPE:WALL-OUTER
G1 F1486.8 X160.2 Y115.2 E46.27405
G1 X169.8 Y115.2 E46.39444
G1 X169.8 Y124.8 E46.51483
G1 X160.2 Y124.8 E46.63522
M204 S5000
G0 F9000 X160.2 Y124.6
G0 X160.64 Y124.36
G0 X161 Y124
;MESH:NONMESH
G0 F600 X161 Y124 Z3.6
G0 F9000 X169 Y124
;TIME_ELAPSED:158.837177
;LAYER:17
M204 S4000
;TYPE:FILL
;MESH:cube.stl
G1 F1486.8 X168.998 Y118.928 E46.69882
G1 X160.999 Y121.071 E46.80267
G1 X161 Y124 E46.8394
G1 X163.928 Y123.999 E46.87612
G1 X166.072 Y115.998 E46.97999
M204 S5000
G0 F9000 X169 Y116
M204 S4000
G1 F1486.8 X161 Y116 E47.08032
M204 S5000
G0 F9000 X160.999 Y116
M204 S4000
G1 F1486.8 X168.999 Y124 E47.22219
M204 S5000
G0 F9000 X160.67 Y124.33
G0 X160.6 Y124.4
M204 S1000
;TYPE:WALL-INNER
G1 F1486.8 X160.6 Y115.6 E47.33255
G1 X169.4 Y115.6 E47.44291
G1 X169.4 Y124.4 E47.55326
G1 X160.6 Y124.4 E47.66362
M204 S5000
G0 F9000 X160.2 Y124.8
M204 S500
;TYPE:WALL-OUTER
G1 F1486.8 X160.2 Y115.2 E47.784
G1 X169.8 Y115.2 E47.90439
G1 X169.8 Y124.8 E48.02478
G1 X160.2 Y124.8 E48.14517
M204 S5000
G0 F9000 X160.2 Y124.6
G0 X160.64 Y124.36
G0 X161 Y124
;MESH:NONMESH
G0 F600 X161 Y124 Z3.8
G0 F9000 X169 Y124
;TIME_ELAPSED:164.044838
;LAYER:18
M204 S4000
;TYPE:FILL
;MESH:cube.stl
G1 F1486.8 X168.998 Y118.928 E48.20877
G1 X160.999 Y121.071 E48.31262
G1 X161 Y124 E48.34935
G1 X163.928 Y123.999 E48.38607
G1 X166.072 Y115.998 E48.48994
M204 S5000
G0 F9000 X169 Y116
M204 S4000
G1 F1486.8 X161 Y116 E48.59027
M204 S5000
G0 F9000 X160.999 Y116
M204 S4000
G1 F1486.8 X168.999 Y124 E48.73214
M204 S5000
G0 F9000 X160.67 Y124.33
G0 X160.6 Y124.4
M204 S1000
;TYPE:WALL-INNER
G1 F1486.8 X160.6 Y115.6 E48.8425
G1 X169.4 Y115.6 E48.95285
G1 X169.4 Y124.4 E49.06321
G1 X160.6 Y124.4 E49.17357
M204 S5000
G0 F9000 X160.2 Y124.8
M204 S500
;TYPE:WALL-OUTER
G1 F1486.8 X160.2 Y115.2 E49.29395
G1 X169.8 Y115.2 E49.41434
G1 X169.8 Y124.8 E49.53473
G1 X160.2 Y124.8 E49.65512
M204 S5000
G0 F9000 X160.2 Y124.6
G0 X160.64 Y124.36
G0 X161 Y124
;MESH:NONMESH
G0 F600 X161 Y124 Z4
G0 F9000 X169 Y124
;TIME_ELAPSED:169.252500
;LAYER:19
M204 S4000
;TYPE:FILL
;MESH:cube.stl
G1 F1486.8 X168.998 Y118.928 E49.71872
G1 X160.999 Y121.071 E49.82257
G1 X161 Y124 E49.8593
G1 X163.928 Y123.999 E49.89602
G1 X166.072 Y115.998 E49.99989
M204 S5000
G0 F9000 X169 Y116
M204 S4000
G1 F1486.8 X161 Y116 E50.10022
M204 S5000
G0 F9000 X160.999 Y116
M204 S4000
G1 F1486.8 X168.999 Y124 E50.24209
M204 S5000
G0 F9000 X160.67 Y124.33
G0 X160.6 Y124.4
M204 S1000
;TYPE:WALL-INNER
G1 F1486.8 X160.6 Y115.6 E50.35245
G1 X169.4 Y115.6 E50.4628
G1 X169.4 Y124.4 E50.57316
G1 X160.6 Y124.4 E50.68351
M204 S5000
G0 F9000 X160.2 Y124.8
M204 S500
;TYPE:WALL-OUTER
G1 F1486.8 X160.2 Y115.2 E50.8039
G1 X169.8 Y115.2 E50.92429
G1 X169.8 Y124.8 E51.04468
G1 X160.2 Y124.8 E51.16507
M204 S5000
G0 F9000 X160.2 Y124.6
G0 X160.64 Y124.36
G0 X161 Y124
;MESH:NONMESH
G0 F600 X161 Y124 Z4.2
G0 F9000 X169 Y124
;TIME_ELAPSED:174.460161
;LAYER:20
M204 S4000
;TYPE:FILL
;MESH:cube.stl
G1 F1486.8 X168.998 Y118.928 E51.22867
G1 X160.999 Y121.071 E51.33252
G1 X161 Y124 E51.36925
G1 X163.928 Y123.999 E51.40597
G1 X166.072 Y115.998 E51.50984
M204 S5000
G0 F9000 X169 Y116
M204 S4000
G1 F1486.8 X161 Y116 E51.61017
M204 S5000
G0 F9000 X160.999 Y116
M204 S4000
G1 F1486.8 X168.999 Y124 E51.75204
M204 S5000
G0 F9000 X160.67 Y124.33
G0 X160.6 Y124.4
M204 S1000
;TYPE:WALL-INNER
G1 F1486.8 X160.6 Y115.6 E51.8624
G1 X169.4 Y115.6 E51.97275
G1 X169.4 Y124.4 E52.08311
G1 X160.6 Y124.4 E52.19346
M204 S5000
G0 F9000 X160.2 Y124.8
M204 S500
;TYPE:WALL-OUTER
G1 F1486.8 X160.2 Y115.2 E52.31385
G1 X169.8 Y115.2 E52.43424
G1 X169.8 Y124.8 E52.55463
G1 X160.2 Y124.8 E52.67501
M204 S5000
G0 F9000 X160.2 Y124.6
G0 X160.64 Y124.36
G0 X161 Y124
;MESH:NONMESH
G0 F600 X161 Y124 Z4.4
G0 F9000 X169 Y124
;TIME_ELAPSED:179.667822
;LAYER:21
M204 S4000
;TYPE:FILL
;MESH:cube.stl
G1 F1486.8 X168.998 Y118.928 E52.73862
G1 X160.999 Y121.071 E52.84247
G1 X161 Y124 E52.8792
G1 X163.928 Y123.999 E52.91592
G1 X166.072 Y115.998 E53.01979
M204 S5000
G0 F9000 X169 Y116
M204 S4000
G1 F1486.8 X161 Y116 E53.12011
M204 S5000
G0 F9000 X160.999 Y116
M204 S4000
G1 F1486.8 X168.999 Y124 E53.26199
M204 S5000
G0 F9000 X160.67 Y124.33
G0 X160.6 Y124.4
M204 S1000
;TYPE:WALL-INNER
G1 F1486.8 X160.6 Y115.6 E53.37235
G1 X169.4 Y115.6 E53.4827
G1 X169.4 Y124.4 E53.59306
G1 X160.6 Y124.4 E53.70341
M204 S5000
G0 F9000 X160.2 Y124.8
M204 S500
;TYPE:WALL-OUTER
G1 F1486.8 X160.2 Y115.2 E53.8238
G1 X169.8 Y115.2 E53.94419
G1 X169.8 Y124.8 E54.06458
G1 X160.2 Y124.8 E54.18496
M204 S5000
G0 F9000 X160.2 Y124.6
G0 X160.64 Y124.36
G0 X161 Y124
;MESH:NONMESH
G0 F600 X161 Y124 Z4.6
G0 F9000 X169 Y124
;TIME_ELAPSED:184.875483
;LAYER:22
M204 S4000
;TYPE:FILL
;MESH:cube.stl
G1 F1486.8 X168.998 Y118.928 E54.24857
G1 X160.999 Y121.071 E54.35242
G1 X161 Y124 E54.38915
G1 X163.928 Y123.999 E54.42587
G1 X166.072 Y115.998 E54.52974
M204 S5000
G0 F9000 X169 Y116
M204 S4000
G1 F1486.8 X161 Y116 E54.63006
M204 S5000
G0 F9000 X160.999 Y116
M204 S4000
G1 F1486.8 X168.999 Y124 E54.77194
M204 S5000
G0 F9000 X160.67 Y124.33
G0 X160.6 Y124.4
M204 S1000
;TYPE:WALL-INNER
G1 F1486.8 X160.6 Y115.6 E54.8823
G1 X169.4 Y115.6 E54.99265
G1 X169.4 Y124.4 E55.10301
G1 X160.6 Y124.4 E55.21336
M204 S5000
G0 F9000 X160.2 Y124.8
M204 S500
;TYPE:WALL-OUTER
G1 F1486.8 X160.2 Y115.2 E55.33375
G1 X169.8 Y115.2 E55.45414
G1 X169.8 Y124.8 E55.57453
G1 X160.2 Y124.8 E55.69491
M204 S5000
G0 F9000 X160.2 Y124.6
G0 X160.64 Y124.36
G0 X161 Y124
;MESH:NONMESH
G0 F600 X161 Y124 Z4.8
G0 F9000 X169 Y124
;TIME_ELAPSED:190.083144
;LAYER:23
M204 S4000
;TYPE:FILL
;MESH:cube.stl
G1 F1486.8 X168.998 Y118.928 E55.75852
G1 X160.999 Y121.071 E55.86237
G1 X161 Y124 E55.8991
G1 X163.928 Y123.999 E55.93582
G1 X166.072 Y115.998 E56.03969
M204 S5000
G0 F9000 X169 Y116
M204 S4000
G1 F1486.8 X161 Y116 E56.14001
M204 S5000
G0 F9000 X160.999 Y116
M204 S4000
G1 F1486.8 X168.999 Y124 E56.28189
M204 S5000
G0 F9000 X160.67 Y124.33
G0 X160.6 Y124.4
M204 S1000
;TYPE:WALL-INNER
G1 F1486.8 X160.6 Y115.6 E56.39225
G1 X169.4 Y115.6 E56.5026
G1 X169.4 Y124.4 E56.61296
G1 X160.6 Y124.4 E56.72331
M204 S5000
G0 F9000 X160.2 Y124.8
M204 S500
;TYPE:WALL-OUTER
G1 F1486.8 X160.2 Y115.2 E56.8437
G1 X169.8 Y115.2 E56.96409
G1 X169.8 Y124.8 E57.08448
G1 X160.2 Y124.8 E57.20486
M204 S5000
G0 F9000 X160.2 Y124.6
G0 X160.64 Y124.36
G0 X161 Y124
;MESH:NONMESH
G0 F600 X161 Y124 Z5
G0 F9000 X169 Y124
;TIME_ELAPSED:195.290805
;LAYER:24
M204 S4000
;TYPE:FILL
;MESH:cube.stl
G1 F1486.8 X168.998 Y118.928 E57.26847
G1 X160.999 Y121.071 E57.37232
G1 X161 Y124 E57.40905
G1 X163.928 Y123.999 E57.44576
G1 X166.072 Y115.998 E57.54964
M204 S5000
G0 F9000 X169 Y116
M204 S4000
G1 F1486.8 X161 Y116 E57.64996
M204 S5000
G0 F9000 X160.999 Y116
M204 S4000
G1 F1486.8 X168.999 Y124 E57.79184
M204 S5000
G0 F9000 X160.67 Y124.33
G0 X160.6 Y124.4
M204 S1000
;TYPE:WALL-INNER
G1 F1486.8 X160.6 Y115.6 E57.9022
G1 X169.4 Y115.6 E58.01255
G1 X169.4 Y124.4 E58.12291
G1 X160.6 Y124.4 E58.23326
M204 S5000
G0 F9000 X160.2 Y124.8
M204 S500
;TYPE:WALL-OUTER
G1 F1486.8 X160.2 Y115.2 E58.35365
G1 X169.8 Y115.2 E58.47404
G1 X169.8 Y124.8 E58.59442
G1 X160.2 Y124.8 E58.71481
M204 S5000
G0 F9000 X160.2 Y124.6
G0 X160.64 Y124.36
G0 X161 Y124
;MESH:NONMESH
G0 F600 X161 Y124 Z5.2
G0 F9000 X169 Y124
;TIME_ELAPSED:200.498466
;LAYER:25
M204 S4000
;TYPE:FILL
;MESH:cube.stl
G1 F1486.8 X168.998 Y118.928 E58.77842
G1 X160.999 Y121.071 E58.88227
G1 X161 Y124 E58.919
G1 X163.928 Y123.999 E58.95571
G1 X166.072 Y115.998 E59.05959
M204 S5000
G0 F9000 X169 Y116
M204 S4000
G1 F1486.8 X161 Y116 E59.15991
M204 S5000
G0 F9000 X160.999 Y116
M204 S4000
G1 F1486.8 X168.999 Y124 E59.30179
M204 S5000
G0 F9000 X160.67 Y124.33
G0 X160.6 Y124.4
M204 S1000
;TYPE:WALL-INNER
G1 F1486.8 X160.6 Y115.6 E59.41215
G1 X169.4 Y115.6 E59.5225
G1 X169.4 Y124.4 E59.63286
G1 X160.6 Y124.4 E59.74321
M204 S5000
G0 F9000 X160.2 Y124.8
M204 S500
;TYPE:WALL-OUTER
G1 F1486.8 X160.2 Y115.2 E59.8636
G1 X169.8 Y115.2 E59.98399
G1 X169.8 Y124.8 E60.10437
G1 X160.2 Y124.8 E60.22476
M204 S5000
G0 F9000 X160.2 Y124.6
G0 X160.64 Y124.36
G0 X161 Y124
;MESH:NONMESH
G0 F600 X161 Y124 Z5.4
G0 F9000 X169 Y124
;TIME_ELAPSED:205.706127
;LAYER:26
M204 S4000
;TYPE:FILL
;MESH:cube.stl
G1 F1486.8 X168.998 Y118.928 E60.28837
G1 X160.999 Y121.071 E60.39221
G1 X161 Y124 E60.42895
G1 X163.928 Y123.999 E60.46566
G1 X166.072 Y115.998 E60.56954
M204 S5000
G0 F9000 X169 Y116
M204 S4000
G1 F1486.8 X161 Y116 E60.66986
M204 S5000
G0 F9000 X160.999 Y116
M204 S4000
G1 F1486.8 X168.999 Y124 E60.81174
M204 S5000
G0 F9000 X160.67 Y124.33
G0 X160.6 Y124.4
M204 S1000
;TYPE:WALL-INNER
G1 F1486.8 X160.6 Y115.6 E60.9221
G1 X169.4 Y115.6 E61.03245
G1 X169.4 Y124.4 E61.14281
G1 X160.6 Y124.4 E61.25316
M204 S5000
G0 F9000 X160.2 Y124.8
M204 S500
;TYPE:WALL-OUTER
G1 F1486.8 X160.2 Y115.2 E61.37355
G1 X169.8 Y115.2 E61.49394
G1 X169.8 Y124.8 E61.61432
G1 X160.2 Y124.8 E61.73471
M204 S5000
G0 F9000 X160.2 Y124.6
G0 X160.64 Y124.36
G0 X161 Y124
;MESH:NONMESH
G0 F600 X161 Y124 Z5.6
G0 F9000 X169 Y124
;TIME_ELAPSED:210.913788
;LAYER:27
M204 S4000
;TYPE:FILL
;MESH:cube.stl
G1 F1486.8 X168.998 Y118.928 E61.79832
G1 X160.999 Y121.071 E61.90216
G1 X161 Y124 E61.93889
G1 X163.928 Y123.999 E61.97561
G1 X166.072 Y115.998 E62.07949
M204 S5000
G0 F9000 X169 Y116
M204 S4000
G1 F1486.8 X161 Y116 E62.17981
M204 S5000
G0 F9000 X160.999 Y116
M204 S4000
G1 F1486.8 X168.999 Y124 E62.32169
M204 S5000
G0 F9000 X160.67 Y124.33
G0 X160.6 Y124.4
M204 S1000
;TYPE:WALL-INNER
G1 F1486.8 X160.6 Y115.6 E62.43204
G1 X169.4 Y115.6 E62.5424
G1 X169.4 Y124.4 E62.65276
G1 X160.6 Y124.4 E62.76311
M204 S5000
G0 F9000 X160.2 Y124.8
M204 S500
;TYPE:WALL-OUTER
G1 F1486.8 X160.2 Y115.2 E62.8835
G1 X169.8 Y115.2 E63.00389
G1 X169.8 Y124.8 E63.12427
G1 X160.2 Y124.8 E63.24466
M204 S5000
G0 F9000 X160.2 Y124.6
G0 X160.64 Y124.36
G0 X161 Y124
;MESH:NONMESH
G0 F600 X161 Y124 Z5.8
G0 F9000 X169 Y124
;TIME_ELAPSED:216.121450
;LAYER:28
M204 S4000
;TYPE:FILL
;MESH:cube.stl
G1 F1486.8 X168.998 Y118.928 E63.30827
G1 X160.999 Y121.071 E63.41211
G1 X161 Y124 E63.44884
G1 X163.928 Y123.999 E63.48556
G1 X166.072 Y115.998 E63.58944
M204 S5000
G0 F9000 X169 Y116
M204 S4000
G1 F1486.8 X161 Y116 E63.68976
M204 S5000
G0 F9000 X160.999 Y116
M204 S4000
G1 F1486.8 X168.999 Y124 E63.83164
M204 S5000
G0 F9000 X160.67 Y124.33
G0 X160.6 Y124.4
M204 S1000
;TYPE:WALL-INNER
G1 F1486.8 X160.6 Y115.6 E63.94199
G1 X169.4 Y115.6 E64.05235
G1 X169.4 Y124.4 E64.1627
G1 X160.6 Y124.4 E64.27306
M204 S5000
G0 F9000 X160.2 Y124.8
M204 S500
;TYPE:WALL-OUTER
G1 F1486.8 X160.2 Y115.2 E64.39345
G1 X169.8 Y115.2 E64.51384
G1 X169.8 Y124.8 E64.63422
G1 X160.2 Y124.8 E64.75461
M204 S5000
G0 F9000 X160.2 Y124.6
G0 X160.64 Y124.36
G0 X161 Y124
;MESH:NONMESH
G0 F600 X161 Y124 Z6
G0 F9000 X169 Y124
;TIME_ELAPSED:221.329111
;LAYER:29
M204 S4000
;TYPE:FILL
;MESH:cube.stl
G1 F1486.8 X168.998 Y118.928 E64.81821
G1 X160.999 Y121.071 E64.92206
G1 X161 Y124 E64.95879
G1 X163.928 Y123.999 E64.99551
G1 X166.072 Y115.998 E65.09939
M204 S5000
G0 F9000 X169 Y116
M204 S4000
G1 F1486.8 X161 Y116 E65.19971
M204 S5000
G0 F9000 X160.999 Y116
M204 S4000
G1 F1486.8 X168.999 Y124 E65.34159
M204 S5000
G0 F9000 X160.67 Y124.33
G0 X160.6 Y124.4
M204 S1000
;TYPE:WALL-INNER
G1 F1486.8 X160.6 Y115.6 E65.45194
G1 X169.4 Y115.6 E65.5623
G1 X169.4 Y124.4 E65.67265
G1 X160.6 Y124.4 E65.78301
M204 S5000
G0 F9000 X160.2 Y124.8
M204 S500
;TYPE:WALL-OUTER
G1 F1486.8 X160.2 Y115.2 E65.9034
G1 X169.8 Y115.2 E66.02378
G1 X169.8 Y124.8 E66.14417
G1 X160.2 Y124.8 E66.26456
M204 S5000
G0 F9000 X160.2 Y124.6
G0 X160.64 Y124.36
G0 X161 Y124
;MESH:NONMESH
G0 F600 X161 Y124 Z6.2
G0 F9000 X169 Y124
;TIME_ELAPSED:226.536772
;LAYER:30
M204 S4000
;TYPE:FILL
;MESH:cube.stl
G1 F1486.8 X168.998 Y118.928 E66.32816
G1 X160.999 Y121.071 E66.43201
G1 X161 Y124 E66.46874
G1 X163.928 Y123.999 E66.50546
G1 X166.072 Y115.998 E66.60934
M204 S5000
G0 F9000 X169 Y116
M204 S4000
G1 F1486.8 X161 Y116 E66.70966
M204 S5000
G0 F9000 X160.999 Y116
M204 S4000
G1 F1486.8 X168.999 Y124 E66.85154
M204 S5000
G0 F9000 X160.67 Y124.33
G0 X160.6 Y124.4
M204 S1000
;TYPE:WALL-INNER
G1 F1486.8 X160.6 Y115.6 E66.96189
G1 X169.4 Y115.6 E67.07225
G1 X169.4 Y124.4 E67.1826
G1 X160.6 Y124.4 E67.29296
M204 S5000
G0 F9000 X160.2 Y124.8
M204 S500
;TYPE:WALL-OUTER
G1 F1486.8 X160.2 Y115.2 E67.41335
G1 X169.8 Y115.2 E67.53373
G1 X169.8 Y124.8 E67.65412
G1 X160.2 Y124.8 E67.77451
M204 S5000
G0 F9000 X160.2 Y124.6
G0 X160.64 Y124.36
G0 X161 Y124
;MESH:NONMESH
G0 F600 X161 Y124 Z6.4
G0 F9000 X169 Y124
;TIME_ELAPSED:231.744433
;LAYER:31
M204 S4000
;TYPE:FILL
;MESH:cube.stl
G1 F1486.8 X168.998 Y118.928 E67.83811
G1 X160.999 Y121.071 E67.94196
G1 X161 Y124 E67.97869
G1 X163.928 Y123.999 E68.01541
G1 X166.072 Y115.998 E68.11929
M204 S5000
G0 F9000 X169 Y116
M204 S4000
G1 F1486.8 X161 Y116 E68.21961
M204 S5000
G0 F9000 X160.999 Y116
M204 S4000
G1 F1486.8 X168.999 Y124 E68.36149
M204 S5000
G0 F9000 X160.67 Y124.33
G0 X160.6 Y124.4
M204 S1000
;TYPE:WALL-INNER
G1 F1486.8 X160.6 Y115.6 E68.47184
G1 X169.4 Y115.6 E68.5822
G1 X169.4 Y124.4 E68.69255
G1 X160.6 Y124.4 E68.80291
M204 S5000
G0 F9000 X160.2 Y124.8
M204 S500
;TYPE:WALL-OUTER
G1 F1486.8 X160.2 Y115.2 E68.9233
G1 X169.8 Y115.2 E69.04368
G1 X169.8 Y124.8 E69.16407
G1 X160.2 Y124.8 E69.28446
M204 S5000
G0 F9000 X160.2 Y124.6
G0 X160.64 Y124.36
G0 X161 Y124
;MESH:NONMESH
G0 F600 X161 Y124 Z6.6
G0 F9000 X169 Y124
;TIME_ELAPSED:236.952094
;LAYER:32
M204 S4000
;TYPE:FILL
;MESH:cube.stl
G1 F1486.8 X168.998 Y118.928 E69.34806
G1 X160.999 Y121.071 E69.45191
G1 X161 Y124 E69.48864
G1 X163.928 Y123.999 E69.52536
G1 X166.072 Y115.998 E69.62924
M204 S5000
G0 F9000 X169 Y116
M204 S4000
G1 F1486.8 X161 Y116 E69.72956
M204 S5000
G0 F9000 X160.999 Y116
M204 S4000
G1 F1486.8 X168.999 Y124 E69.87144
M204 S5000
G0 F9000 X160.67 Y124.33
G0 X160.6 Y124.4
M204 S1000
;TYPE:WALL-INNER
G1 F1486.8 X160.6 Y115.6 E69.98179
G1 X169.4 Y115.6 E70.09215
G1 X169.4 Y124.4 E70.2025
G1 X160.6 Y124.4 E70.31286
M204 S5000
G0 F9000 X160.2 Y124.8
M204 S500
;TYPE:WALL-OUTER
G1 F1486.8 X160.2 Y115.2 E70.43325
G1 X169.8 Y115.2 E70.55363
G1 X169.8 Y124.8 E70.67402
G1 X160.2 Y124.8 E70.79441
M204 S5000
G0 F9000 X160.2 Y124.6
G0 X160.64 Y124.36
G0 X161 Y124
;MESH:NONMESH
G0 F600 X161 Y124 Z6.8
G0 F9000 X169 Y124
;TIME_ELAPSED:242.159755
;LAYER:33
M204 S4000
;TYPE:FILL
;MESH:cube.stl
G1 F1486.8 X168.998 Y118.928 E70.85801
G1 X160.999 Y121.071 E70.96186
G1 X161 Y124 E70.99859
G1 X163.928 Y123.999 E71.03531
G1 X166.072 Y115.998 E71.13919
M204 S5000
G0 F9000 X169 Y116
M204 S4000
G1 F1486.8 X161 Y116 E71.23951
M204 S5000
G0 F9000 X160.999 Y116
M204 S4000
G1 F1486.8 X168.999 Y124 E71.38139
M204 S5000
G0 F9000 X160.67 Y124.33
G0 X160.6 Y124.4
M204 S1000
;TYPE:WALL-INNER
G1 F1486.8 X160.6 Y115.6 E71.49174
G1 X169.4 Y115.6 E71.6021
G1 X169.4 Y124.4 E71.71245
G1 X160.6 Y124.4 E71.82281
M204 S5000
G0 F9000 X160.2 Y124.8
M204 S500
;TYPE:WALL-OUTER
G1 F1486.8 X160.2 Y115.2 E71.94319
G1 X169.8 Y115.2 E72.06358
G1 X169.8 Y124.8 E72.18397
G1 X160.2 Y124.8 E72.30436
M204 S5000
G0 F9000 X160.2 Y124.6
G0 X160.64 Y124.36
G0 X161 Y124
;MESH:NONMESH
G0 F600 X161 Y124 Z7
G0 F9000 X169 Y124
;TIME_ELAPSED:247.367416
;LAYER:34
M204 S4000
;TYPE:FILL
;MESH:cube.stl
G1 F1486.8 X168.998 Y118.928 E72.36796
G1 X160.999 Y121.071 E72.47181
G1 X161 Y124 E72.50854
G1 X163.928 Y123.999 E72.54526
G1 X166.072 Y115.998 E72.64913
M204 S5000
G0 F9000 X169 Y116
M204 S4000
G1 F1486.8 X161 Y116 E72.74946
M204 S5000
G0 F9000 X160.999 Y116
M204 S4000
G1 F1486.8 X168.999 Y124 E72.89134
M204 S5000
G0 F9000 X160.67 Y124.33
G0 X160.6 Y124.4
M204 S1000
;TYPE:WALL-INNER
G1 F1486.8 X160.6 Y115.6 E73.00169
G1 X169.4 Y115.6 E73.11205
G1 X169.4 Y124.4 E73.2224
G1 X160.6 Y124.4 E73.33276
M204 S5000
G0 F9000 X160.2 Y124.8
M204 S500
;TYPE:WALL-OUTER
G1 F1486.8 X160.2 Y115.2 E73.45314
G1 X169.8 Y115.2 E73.57353
G1 X169.8 Y124.8 E73.69392
G1 X160.2 Y124.8 E73.81431
M204 S5000
G0 F9000 X160.2 Y124.6
G0 X160.64 Y124.36
G0 X161 Y124
;MESH:NONMESH
G0 F600 X161 Y124 Z7.2
G0 F9000 X169 Y124
;TIME_ELAPSED:252.575077
;LAYER:35
M204 S4000
;TYPE:FILL
;MESH:cube.stl
G1 F1486.8 X168.998 Y118.928 E73.87791
G1 X160.999 Y121.071 E73.98176
G1 X161 Y124 E74.01849
G1 X163.928 Y123.999 E74.05521
G1 X166.072 Y115.998 E74.15908
M204 S5000
G0 F9000 X169 Y116
M204 S4000
G1 F1486.8 X161 Y116 E74.25941
M204 S5000
G0 F9000 X160.999 Y116
M204 S4000
G1 F1486.8 X168.999 Y124 E74.40129
M204 S5000
G0 F9000 X160.67 Y124.33
G0 X160.6 Y124.4
M204 S1000
;TYPE:WALL-INNER
G1 F1486.8 X160.6 Y115.6 E74.51164
G1 X169.4 Y115.6 E74.622
G1 X169.4 Y124.4 E74.73235
G1 X160.6 Y124.4 E74.84271
M204 S5000
G0 F9000 X160.2 Y124.8
M204 S500
;TYPE:WALL-OUTER
G1 F1486.8 X160.2 Y115.2 E74.96309
G1 X169.8 Y115.2 E75.08348
G1 X169.8 Y124.8 E75.20387
G1 X160.2 Y124.8 E75.32426
M204 S5000
G0 F9000 X160.2 Y124.6
G0 X160.64 Y124.36
G0 X161 Y124
;MESH:NONMESH
G0 F600 X161 Y124 Z7.4
G0 F9000 X169 Y124
;TIME_ELAPSED:257.782739
;LAYER:36
M204 S4000
;TYPE:FILL
;MESH:cube.stl
G1 F1486.8 X168.998 Y118.928 E75.38786
G1 X160.999 Y121.071 E75.49171
G1 X161 Y124 E75.52844
G1 X163.928 Y123.999 E75.56516
G1 X166.072 Y115.998 E75.66903
M204 S5000
G0 F9000 X169 Y116
M204 S4000
G1 F1486.8 X161 Y116 E75.76936
M204 S5000
G0 F9000 X160.999 Y116
M204 S4000
G1 F1486.8 X168.999 Y124 E75.91123
M204 S5000
G0 F9000 X160.67 Y124.33
G0 X160.6 Y124.4
M204 S1000
;TYPE:WALL-INNER
G1 F1486.8 X160.6 Y115.6 E76.02159
G1 X169.4 Y115.6 E76.13195
G1 X169.4 Y124.4 E76.2423
G1 X160.6 Y124.4 E76.35266
M204 S5000
G0 F9000 X160.2 Y124.8
M204 S500
;TYPE:WALL-OUTER
G1 F1486.8 X160.2 Y115.2 E76.47304
G1 X169.8 Y115.2 E76.59343
G1 X169.8 Y124.8 E76.71382
G1 X160.2 Y124.8 E76.83421
M204 S5000
G0 F9000 X160.2 Y124.6
G0 X160.64 Y124.36
G0 X161 Y124
;MESH:NONMESH
G0 F600 X161 Y124 Z7.6
G0 F9000 X169 Y124
;TIME_ELAPSED:262.990400
;LAYER:37
M204 S4000
;TYPE:FILL
;MESH:cube.stl
G1 F1486.8 X168.998 Y118.928 E76.89781
G1 X160.999 Y121.071 E77.00166
G1 X161 Y124 E77.03839
G1 X163.928 Y123.999 E77.07511
G1 X166.072 Y115.998 E77.17898
M204 S5000
G0 F9000 X169 Y116
M204 S4000
G1 F1486.8 X161 Y116 E77.27931
M204 S5000
G0 F9000 X160.999 Y116
M204 S4000
G1 F1486.8 X168.999 Y124 E77.42118
M204 S5000
G0 F9000 X160.67 Y124.33
G0 X160.6 Y124.4
M204 S1000
;TYPE:WALL-INNER
G1 F1486.8 X160.6 Y115.6 E77.53154
G1 X169.4 Y115.6 E77.64189
G1 X169.4 Y124.4 E77.75225
G1 X160.6 Y124.4 E77.86261
M204 S5000
G0 F9000 X160.2 Y124.8
M204 S500
;TYPE:WALL-OUTER
G1 F1486.8 X160.2 Y115.2 E77.98299
G1 X169.8 Y115.2 E78.10338
G1 X169.8 Y124.8 E78.22377
G1 X160.2 Y124.8 E78.34416
M204 S5000
G0 F9000 X160.2 Y124.6
G0 X160.64 Y124.36
G0 X161 Y124
;MESH:NONMESH
G0 F600 X161 Y124 Z7.8
G0 F9000 X169 Y124
;TIME_ELAPSED:268.198061
;LAYER:38
M204 S4000
;TYPE:FILL
;MESH:cube.stl
G1 F1486.8 X168.998 Y118.928 E78.40776
G1 X160.999 Y121.071 E78.51161
G1 X161 Y124 E78.54834
G1 X163.928 Y123.999 E78.58506
G1 X166.072 Y115.998 E78.68893
M204 S5000
G0 F9000 X169 Y116
M204 S4000
G1 F1486.8 X161 Y116 E78.78926
M204 S5000
G0 F9000 X160.999 Y116
M204 S4000
G1 F1486.8 X168.999 Y124 E78.93113
M204 S5000
G0 F9000 X160.67 Y124.33
G0 X160.6 Y124.4
M204 S1000
;TYPE:WALL-INNER
G1 F1486.8 X160.6 Y115.6 E79.04149
G1 X169.4 Y115.6 E79.15184
G1 X169.4 Y124.4 E79.2622
G1 X160.6 Y124.4 E79.37255
M204 S5000
G0 F9000 X160.2 Y124.8
M204 S500
;TYPE:WALL-OUTER
G1 F1486.8 X160.2 Y115.2 E79.49294
G1 X169.8 Y115.2 E79.61333
G1 X169.8 Y124.8 E79.73372
G1 X160.2 Y124.8 E79.8541
M204 S5000
G0 F9000 X160.2 Y124.6
G0 X160.64 Y124.36
G0 X161 Y124
;MESH:NONMESH
G0 F600 X161 Y124 Z8
G0 F9000 X169 Y124
;TIME_ELAPSED:273.405722
;LAYER:39
M204 S4000
;TYPE:FILL
;MESH:cube.stl
G1 F1486.8 X168.998 Y118.928 E79.91771
G1 X160.999 Y121.071 E80.02156
G1 X161 Y124 E80.05829
G1 X163.928 Y123.999 E80.09501
G1 X166.072 Y115.998 E80.19888
M204 S5000
G0 F9000 X169 Y116
M204 S4000
G1 F1486.8 X161 Y116 E80.2992
M204 S5000
G0 F9000 X160.999 Y116
M204 S4000
G1 F1486.8 X168.999 Y124 E80.44108
M204 S5000
G0 F9000 X160.67 Y124.33
G0 X160.6 Y124.4
M204 S1000
;TYPE:WALL-INNER
G1 F1486.8 X160.6 Y115.6 E80.55144
G1 X169.4 Y115.6 E80.66179
G1 X169.4 Y124.4 E80.77215
G1 X160.6 Y124.4 E80.8825
M204 S5000
G0 F9000 X160.2 Y124.8
M204 S500
;TYPE:WALL-OUTER
G1 F1486.8 X160.2 Y115.2 E81.00289
G1 X169.8 Y115.2 E81.12328
G1 X169.8 Y124.8 E81.24367
G1 X160.2 Y124.8 E81.36405
M204 S5000
G0 F9000 X160.2 Y124.6
G0 X160.64 Y124.36
G0 X161 Y124
;MESH:NONMESH
G0 F600 X161 Y124 Z8.2
G0 F9000 X169 Y124
;TIME_ELAPSED:278.613383
;LAYER:40
M204 S4000
;TYPE:FILL
;MESH:cube.stl
G1 F1486.8 X168.998 Y118.928 E81.42766
G1 X160.999 Y121.071 E81.53151
G1 X161 Y124 E81.56824
G1 X163.928 Y123.999 E81.60496
G1 X166.072 Y115.998 E81.70883
M204 S5000
G0 F9000 X169 Y116
M204 S4000
G1 F1486.8 X161 Y116 E81.80915
M204 S5000
G0 F9000 X160.999 Y116
M204 S4000
G1 F1486.8 X168.999 Y124 E81.95103
M204 S5000
G0 F9000 X160.67 Y124.33
G0 X160.6 Y124.4
M204 S1000
;TYPE:WALL-INNER
G1 F1486.8 X160.6 Y115.6 E82.06139
G1 X169.4 Y115.6 E82.17174
G1 X169.4 Y124.4 E82.2821
G1 X160.6 Y124.4 E82.39245
M204 S5000
G0 F9000 X160.2 Y124.8
M204 S500
;TYPE:WALL-OUTER
G1 F1486.8 X160.2 Y115.2 E82.51284
G1 X169.8 Y115.2 E82.63323
G1 X169.8 Y124.8 E82.75362
G1 X160.2 Y124.8 E82.874
M204 S5000
G0 F9000 X160.2 Y124.6
G0 X160.64 Y124.36
G0 X161 Y124
;MESH:NONMESH
G0 F600 X161 Y124 Z8.4
G0 F9000 X169 Y124
;TIME_ELAPSED:283.821044
;LAYER:41
M204 S4000
;TYPE:FILL
;MESH:cube.stl
G1 F1486.8 X168.998 Y118.928 E82.93761
G1 X160.999 Y121.071 E83.04146
G1 X161 Y124 E83.07819
G1 X163.928 Y123.999 E83.11491
G1 X166.072 Y115.998 E83.21878
M204 S5000
G0 F9000 X169 Y116
M204 S4000
G1 F1486.8 X161 Y116 E83.3191
M204 S5000
G0 F9000 X160.999 Y116
M204 S4000
G1 F1486.8 X168.999 Y124 E83.46098
M204 S5000
G0 F9000 X160.67 Y124.33
G0 X160.6 Y124.4
M204 S1000
;TYPE:WALL-INNER
G1 F1486.8 X160.6 Y115.6 E83.57134
G1 X169.4 Y115.6 E83.68169
G1 X169.4 Y124.4 E83.79205
G1 X160.6 Y124.4 E83.9024
M204 S5000
G0 F9000 X160.2 Y124.8
M204 S500
;TYPE:WALL-OUTER
G1 F1486.8 X160.2 Y115.2 E84.02279
G1 X169.8 Y115.2 E84.14318
G1 X169.8 Y124.8 E84.26357
G1 X160.2 Y124.8 E84.38395
M204 S5000
G0 F9000 X160.2 Y124.6
G0 X160.64 Y124.36
G0 X161 Y124
;MESH:NONMESH
G0 F600 X161 Y124 Z8.6
G0 F9000 X169 Y124
;TIME_ELAPSED:289.028705
;LAYER:42
M204 S4000
;TYPE:FILL
;MESH:cube.stl
G1 F1486.8 X168.998 Y118.928 E84.44756
G1 X160.999 Y121.071 E84.55141
G1 X161 Y124 E84.58814
G1 X163.928 Y123.999 E84.62485
G1 X166.072 Y115.998 E84.72873
M204 S5000
G0 F9000 X169 Y116
M204 S4000
G1 F1486.8 X161 Y116 E84.82905
M204 S5000
G0 F9000 X160.999 Y116
M204 S4000
G1 F1486.8 X168.999 Y124 E84.97093
M204 S5000
G0 F9000 X160.67 Y124.33
G0 X160.6 Y124.4
M204 S1000
;TYPE:WALL-INNER
G1 F1486.8 X160.6 Y115.6 E85.08129
G1 X169.4 Y115.6 E85.19164
G1 X169.4 Y124.4 E85.302
G1 X160.6 Y124.4 E85.41235
M204 S5000
G0 F9000 X160.2 Y124.8
M204 S500
;TYPE:WALL-OUTER
G1 F1486.8 X160.2 Y115.2 E85.53274
G1 X169.8 Y115.2 E85.65313
G1 X169.8 Y124.8 E85.77351
G1 X160.2 Y124.8 E85.8939
M204 S5000
G0 F9000 X160.2 Y124.6
G0 X160.64 Y124.36
G0 X161 Y124
;MESH:NONMESH
G0 F600 X161 Y124 Z8.8
G0 F9000 X169 Y124
;TIME_ELAPSED:294.236366
;LAYER:43
M204 S4000
;TYPE:FILL
;MESH:cube.stl
G1 F1486.8 X168.998 Y118.928 E85.95751
G1 X160.999 Y121.071 E86.06136
G1 X161 Y124 E86.09809
G1 X163.928 Y123.999 E86.1348
G1 X166.072 Y115.998 E86.23868
M204 S5000
G0 F9000 X169 Y116
M204 S4000
G1 F1486.8 X161 Y116 E86.339
M204 S5000
G0 F9000 X160.999 Y116
M204 S4000
G1 F1486.8 X168.999 Y124 E86.48088
M204 S5000
G0 F9000 X160.67 Y124.33
G0 X160.6 Y124.4
M204 S1000
;TYPE:WALL-INNER
G1 F1486.8 X160.6 Y115.6 E86.59124
G1 X169.4 Y115.6 E86.70159
G1 X169.4 Y124.4 E86.81195
G1 X160.6 Y124.4 E86.9223
M204 S5000
G0 F9000 X160.2 Y124.8
M204 S500
;TYPE:WALL-OUTER
G1 F1486.8 X160.2 Y115.2 E87.04269
G1 X169.8 Y115.2 E87.16308
G1 X169.8 Y124.8 E87.28346
G1 X160.2 Y124.8 E87.40385
M204 S5000
G0 F9000 X160.2 Y124.6
G0 X160.64 Y124.36
G0 X161 Y124
;MESH:NONMESH
G0 F600 X161 Y124 Z9
G0 F9000 X169 Y124
;TIME_ELAPSED:299.444028
;LAYER:44
M204 S4000
;TYPE:FILL
;MESH:cube.stl
G1 F1486.8 X168.998 Y118.928 E87.46746
G1 X160.999 Y121.071 E87.5713
G1 X161 Y124 E87.60804
G1 X163.928 Y123.999 E87.64475
G1 X166.072 Y115.998 E87.74863
M204 S5000
G0 F9000 X169 Y116
M204 S4000
G1 F1486.8 X161 Y116 E87.84895
M204 S5000
G0 F9000 X160.999 Y116
M204 S4000
G1 F1486.8 X168.999 Y124 E87.99083
M204 S5000
G0 F9000 X160.67 Y124.33
G0 X160.6 Y124.4
M204 S1000
;TYPE:WALL-INNER
G1 F1486.8 X160.6 Y115.6 E88.10119
G1 X169.4 Y115.6 E88.21154
G1 X169.4 Y124.4 E88.3219
G1 X160.6 Y124.4 E88.43225
M204 S5000
G0 F9000 X160.2 Y124.8
M204 S500
;TYPE:WALL-OUTER
G1 F1486.8 X160.2 Y115.2 E88.55264
G1 X169.8 Y115.2 E88.67303
G1 X169.8 Y124.8 E88.79341
G1 X160.2 Y124.8 E88.9138
M204 S5000
G0 F9000 X160.2 Y124.6
G0 X160.64 Y124.36
G0 X161 Y124
;MESH:NONMESH
G0 F600 X161 Y124 Z9.2
G0 F9000 X169 Y124
;TIME_ELAPSED:304.651689
;LAYER:45
M204 S4000
;TYPE:FILL
;MESH:cube.stl
G1 F1486.8 X168.998 Y118.928 E88.97741
G1 X160.999 Y121.071 E89.08125
G1 X161 Y124 E89.11798
G1 X163.928 Y123.999 E89.1547
G1 X166.072 Y115.998 E89.25858
M204 S5000
G0 F9000 X169 Y116
M204 S4000
G1 F1486.8 X161 Y116 E89.3589
M204 S5000
G0 F9000 X160.999 Y116
M204 S4000
G1 F1486.8 X168.999 Y124 E89.50078
M204 S5000
G0 F9000 X160.67 Y124.33
G0 X160.6 Y124.4
M204 S1000
;TYPE:WALL-INNER
G1 F1486.8 X160.6 Y115.6 E89.61113
G1 X169.4 Y115.6 E89.72149
G1 X169.4 Y124.4 E89.83185
G1 X160.6 Y124.4 E89.9422
M204 S5000
G0 F9000 X160.2 Y124.8
M204 S500
;TYPE:WALL-OUTER
G1 F1486.8 X160.2 Y115.2 E90.06259
G1 X169.8 Y115.2 E90.18298
G1 X169.8 Y124.8 E90.30336
G1 X160.2 Y124.8 E90.42375
M204 S5000
G0 F9000 X160.2 Y124.6
G0 X160.64 Y124.36
G0 X161 Y124
;MESH:NONMESH
G0 F600 X161 Y124 Z9.4
G0 F9000 X160.6 Y124.4
;TIME_ELAPSED:309.797333
;LAYER:46
M204 S1000
;TYPE:WALL-INNER
;MESH:cube.stl
G1 F3000 X160.6 Y115.6 E90.53411
G1 X169.4 Y115.6 E90.64446
G1 X169.4 Y124.4 E90.75482
G1 X160.6 Y124.4 E90.86517
M204 S5000
G0 F9000 X160.2 Y124.8
M204 S500
;TYPE:WALL-OUTER
G1 F3000 X160.2 Y115.2 E90.98556
G1 X169.8 Y115.2 E91.10595
G1 X169.8 Y124.8 E91.22633
G1 X160.2 Y124.8 E91.34672
M204 S5000
G0 F9000 X160.2 Y124.6
G0 X160.64 Y124.36
G0 X161.049 Y124.28
M204 S500
;TYPE:SKIN
G1 F3000 X160.719 Y123.949 E91.35258
M204 S5000
G0 F9000 X160.719 Y123.383
M204 S500
G1 F3000 X161.615 Y124.28 E91.36848
M204 S5000
G0 F9000 X162.181 Y124.28
M204 S500
G1 F3000 X160.719 Y122.818 E91.39441
M204 S5000
G0 F9000 X160.719 Y122.252
M204 S500
G1 F3000 X162.746 Y124.28 E91.43037
M204 S5000
G0 F9000 X163.312 Y124.28
M204 S500
G1 F3000 X160.719 Y121.686 E91.47636
M204 S5000
G0 F9000 X160.719 Y121.121
M204 S500
G1 F3000 X163.878 Y124.28 E91.53239
M204 S5000
G0 F9000 X164.444 Y124.28
M204 S500
G1 F3000 X160.719 Y120.555 E91.59845
M204 S5000
G0 F9000 X160.719 Y119.989
M204 S500
G1 F3000 X165.009 Y124.28 E91.67454
M204 S5000
G0 F9000 X165.575 Y124.28
M204 S500
G1 F3000 X160.719 Y119.423 E91.76067
M204 S5000
G0 F9000 X160.719 Y118.858
M204 S500
G1 F3000 X166.141 Y124.28 E91.85683
M204 S5000
G0 F9000 X166.706 Y124.28
M204 S500
G1 F3000 X160.719 Y118.292 E91.96301
M204 S5000
G0 F9000 X160.719 Y117.726
M204 S500
G1 F3000 X167.272 Y124.28 E92.07924
M204 S5000
G0 F9000 X167.838 Y124.28
M204 S500
G1 F3000 X160.719 Y117.161 E92.20549
M204 S5000
G0 F9000 X160.719 Y116.595
M204 S500
G1 F3000 X168.403 Y124.28 E92.34178
M204 S5000
G0 F9000 X168.969 Y124.28
M204 S500
G1 F3000 X160.719 Y116.029 E92.4881
M204 S5000
G0 F9000 X160.974 Y115.72
M204 S500
G1 F3000 X169.279 Y124.024 E92.63537
M204 S5000
G0 F9000 X169.279 Y123.458
M204 S500
G1 F3000 X161.54 Y115.72 E92.77261
M204 S5000
G0 F9000 X162.106 Y115.72
M204 S500
G1 F3000 X169.279 Y122.893 E92.89983
M204 S5000
G0 F9000 X169.279 Y122.327
M204 S500
G1 F3000 X162.672 Y115.72 E93.017
M204 S5000
G0 F9000 X163.237 Y115.72
M204 S500
G1 F3000 X169.279 Y121.761 E93.12414
M204 S5000
G0 F9000 X169.279 Y121.195
M204 S500
G1 F3000 X163.803 Y115.72 E93.22125
M204 S5000
G0 F9000 X164.369 Y115.72
M204 S500
G1 F3000 X169.279 Y120.63 E93.30833
M204 S5000
G0 F9000 X169.279 Y120.064
M204 S500
G1 F3000 X164.934 Y115.72 E93.38538
M204 S5000
G0 F9000 X165.5 Y115.72
M204 S500
G1 F3000 X169.279 Y119.498 E93.45239
M204 S5000
G0 F9000 X169.279 Y118.933
M204 S500
G1 F3000 X166.066 Y115.72 E93.50937
M204 S5000
G0 F9000 X166.631 Y115.72
M204 S500
G1 F3000 X169.279 Y118.367 E93.55632
M204 S5000
G0 F9000 X169.279 Y117.801
M204 S500
G1 F3000 X167.197 Y115.72 E93.59324
M204 S5000
G0 F9000 X167.763 Y115.72
M204 S500
G1 F3000 X169.279 Y117.236 E93.62012
M204 S5000
G0 F9000 X169.279 Y116.67
M204 S500
G1 F3000 X168.328 Y115.72 E93.63698
M204 S5000
G0 F9000 X168.894 Y115.72
M204 S500
G1 F3000 X169.279 Y116.104 E93.6438
M204 S5000
G0 F9000 X169 Y116.104
;MESH:NONMESH
G0 F600 X169 Y116.104 Z9.6
G0 F9000 X160.67 Y124.33
G0 X160.6 Y124.4
;TIME_ELAPSED:316.936947
;LAYER:47
M204 S1000
;TYPE:WALL-INNER
;MESH:cube.stl
G1 F3000 X160.6 Y115.6 E93.75415
G1 X169.4 Y115.6 E93.86451
G1 X169.4 Y124.4 E93.97487
G1 X160.6 Y124.4 E94.08522
M204 S5000
G0 F9000 X160.2 Y124.8
M204 S500
;TYPE:WALL-OUTER
G1 F3000 X160.2 Y115.2 E94.20561
G1 X169.8 Y115.2 E94.326
G1 X169.8 Y124.8 E94.44638
G1 X160.2 Y124.8 E94.56677
M204 S5000
G0 F9000 X160.2 Y124.6
G0 X160.64 Y124.36
G0 X160.7 Y124.36
G0 X160.9 Y115.72
M204 S500
;TYPE:SKIN
G1 F3000 X160.719 Y115.901 E94.56998
M204 S5000
G0 F9000 X160.719 Y116.466
M204 S500
G1 F3000 X161.465 Y115.72 E94.58321
M204 S5000
G0 F9000 X162.031 Y115.72
M204 S500
G1 F3000 X160.719 Y117.032 E94.60648
M204 S5000
G0 F9000 X160.719 Y117.598
M204 S500
G1 F3000 X162.597 Y115.72 E94.63978
M204 S5000
G0 F9000 X163.162 Y115.72
M204 S500
G1 F3000 X160.719 Y118.163 E94.68311
M204 S5000
G0 F9000 X160.719 Y118.729
M204 S500
G1 F3000 X163.728 Y115.72 E94.73647
M204 S5000
G0 F9000 X164.294 Y115.72
M204 S500
G1 F3000 X160.719 Y119.295 E94.79988
M204 S5000
G0 F9000 X160.719 Y119.86
M204 S500
G1 F3000 X164.859 Y115.72 E94.8733
M204 S5000
G0 F9000 X165.425 Y115.72
M204 S500
G1 F3000 X160.719 Y120.426 E94.95676
M204 S5000
G0 F9000 X160.719 Y120.992
M204 S500
G1 F3000 X165.991 Y115.72 E95.05026
M204 S5000
G0 F9000 X166.556 Y115.72
M204 S500
G1 F3000 X160.719 Y121.558 E95.15378
M204 S5000
G0 F9000 X160.719 Y122.123
M204 S500
G1 F3000 X167.122 Y115.72 E95.26734
M204 S5000
G0 F9000 X167.688 Y115.72
M204 S500
G1 F3000 X160.719 Y122.689 E95.39093
M204 S5000
G0 F9000 X160.719 Y123.255
M204 S500
G1 F3000 X168.253 Y115.72 E95.52455
M204 S5000
G0 F9000 X168.819 Y115.72
M204 S500
G1 F3000 X160.719 Y123.82 E95.66821
M204 S5000
G0 F9000 X160.825 Y124.28
M204 S500
G1 F3000 X169.279 Y115.826 E95.81814
M204 S5000
G0 F9000 X169.279 Y116.391
M204 S500
G1 F3000 X161.39 Y124.28 E95.95805
M204 S5000
G0 F9000 X161.956 Y124.28
M204 S500
G1 F3000 X169.279 Y116.957 E96.08792
M204 S5000
G0 F9000 X169.279 Y117.523
M204 S500
G1 F3000 X162.522 Y124.28 E96.20775
M204 S5000
G0 F9000 X163.087 Y124.28
M204 S500
G1 F3000 X169.279 Y118.088 E96.31756
M204 S5000
G0 F9000 X169.279 Y118.654
M204 S500
G1 F3000 X163.653 Y124.28 E96.41734
M204 S5000
G0 F9000 X164.219 Y124.28
M204 S500
G1 F3000 X169.279 Y119.22 E96.50708
M204 S5000
G0 F9000 X169.279 Y119.786
M204 S500
G1 F3000 X164.784 Y124.28 E96.58679
M204 S5000
G0 F9000 X165.35 Y124.28
M204 S500
G1 F3000 X169.279 Y120.351 E96.65647
M204 S5000
G0 F9000 X169.279 Y120.917
M204 S500
G1 F3000 X165.916 Y124.28 E96.71611
M204 S5000
G0 F9000 X166.481 Y124.28
M204 S500
G1 F3000 X169.279 Y121.483 E96.76572
M204 S5000
G0 F9000 X169.279 Y122.048
M204 S500
G1 F3000 X167.047 Y124.28 E96.80531
M204 S5000
G0 F9000 X167.613 Y124.28
M204 S500
G1 F3000 X169.279 Y122.614 E96.83485
M204 S5000
G0 F9000 X169.279 Y123.18
M204 S500
G1 F3000 X168.178 Y124.28 E96.85437
M204 S5000
G0 F9000 X168.744 Y124.28
M204 S500
G1 F3000 X169.279 Y123.745 E96.86386
M204 S5000
G0 F9000 X169 Y123.745
;MESH:NONMESH
G0 F600 X169 Y123.745 Z9.8
G0 F9000 X160.67 Y124.33
G0 X160.6 Y124.4
;TIME_ELAPSED:324.127926
;LAYER:48
M204 S1000
;TYPE:WALL-INNER
;MESH:cube.stl
G1 F3000 X160.6 Y115.6 E96.97421
G1 X169.4 Y115.6 E97.08457
G1 X169.4 Y124.4 E97.19492
G1 X160.6 Y124.4 E97.30528
M204 S5000
G0 F9000 X160.2 Y124.8
M204 S500
;TYPE:WALL-OUTER
G1 F3000 X160.2 Y115.2 E97.42567
G1 X169.8 Y115.2 E97.54605
G1 X169.8 Y124.8 E97.66644
G1 X160.2 Y124.8 E97.78683
M204 S5000
G0 F9000 X160.2 Y124.6
G0 X160.64 Y124.36
G0 X160.969 Y124.199
M204 S500
M205 X1 Y1
;TYPE:SKIN
G1 F2520 X160.798 Y124.029 E97.78985
M204 S5000
M205 X30 Y30
G0 F9000 X160.798 Y123.463
M204 S500
M205 X1 Y1
G1 F2520 X161.535 Y124.199 E97.80291
M204 S5000
M205 X30 Y30
G0 F9000 X162.1 Y124.199
M204 S500
M205 X1 Y1
G1 F2520 X160.798 Y122.897 E97.826
M204 S5000
M205 X30 Y30
G0 F9000 X160.798 Y122.332
M204 S500
M205 X1 Y1
G1 F2520 X162.666 Y124.199 E97.85912
M204 S5000
M205 X30 Y30
G0 F9000 X163.232 Y124.199
M204 S500
M205 X1 Y1
G1 F2520 X160.798 Y121.766 E97.90228
M204 S5000
M205 X30 Y30
G0 F9000 X160.798 Y121.2
M204 S500
M205 X1 Y1
G1 F2520 X163.797 Y124.199 E97.95547
M204 S5000
M205 X30 Y30
G0 F9000 X164.363 Y124.199
M204 S500
M205 X1 Y1
G1 F2520 X160.798 Y120.635 E98.01868
M204 S5000
M205 X30 Y30
G0 F9000 X160.798 Y120.069
M204 S500
M205 X1 Y1
G1 F2520 X164.929 Y124.199 E98.09194
M204 S5000
M205 X30 Y30
G0 F9000 X165.494 Y124.199
M204 S500
M205 X1 Y1
G1 F2520 X160.798 Y119.503 E98.17522
M204 S5000
M205 X30 Y30
G0 F9000 X160.798 Y118.938
M204 S500
M205 X1 Y1
G1 F2520 X166.06 Y124.199 E98.26853
M204 S5000
M205 X30 Y30
G0 F9000 X166.626 Y124.199
M204 S500
M205 X1 Y1
G1 F2520 X160.798 Y118.372 E98.37188
M204 S5000
M205 X30 Y30
G0 F9000 X160.798 Y117.806
M204 S500
M205 X1 Y1
G1 F2520 X167.191 Y124.199 E98.48526
M204 S5000
M205 X30 Y30
G0 F9000 X167.757 Y124.199
M204 S500
M205 X1 Y1
G1 F2520 X160.798 Y117.241 E98.60867
M204 S5000
M205 X30 Y30
G0 F9000 X160.798 Y116.675
M204 S500
M205 X1 Y1
G1 F2520 X168.323 Y124.199 E98.74211
M204 S5000
M205 X30 Y30
G0 F9000 X168.888 Y124.199
M204 S500
M205 X1 Y1
G1 F2520 X160.798 Y116.109 E98.88559
M204 S5000
M205 X30 Y30
G0 F9000 X161.054 Y115.8
M204 S500
M205 X1 Y1
G1 F2520 X169.199 Y123.944 E99.03003
M204 S5000
M205 X30 Y30
G0 F9000 X169.199 Y123.378
M204 S500
M205 X1 Y1
G1 F2520 X161.62 Y115.8 E99.16443
M204 S5000
M205 X30 Y30
G0 F9000 X162.186 Y115.8
M204 S500
M205 X1 Y1
G1 F2520 X169.199 Y122.813 E99.2888
M204 S5000
M205 X30 Y30
G0 F9000 X169.199 Y122.247
M204 S500
M205 X1 Y1
G1 F2520 X162.751 Y115.8 E99.40315
M204 S5000
M205 X30 Y30
G0 F9000 X163.317 Y115.8
M204 S500
M205 X1 Y1
G1 F2520 X169.199 Y121.681 E99.50746
M204 S5000
M205 X30 Y30
G0 F9000 X169.199 Y121.116
M204 S500
M205 X1 Y1
G1 F2520 X163.883 Y115.8 E99.60173
M204 S5000
M205 X30 Y30
G0 F9000 X164.448 Y115.8
M204 S500
M205 X1 Y1
G1 F2520 X169.199 Y120.55 E99.68598
M204 S5000
M205 X30 Y30
G0 F9000 X169.199 Y119.984
M204 S500
M205 X1 Y1
G1 F2520 X165.014 Y115.8 E99.76019
M204 S5000
M205 X30 Y30
G0 F9000 X165.58 Y115.8
M204 S500
M205 X1 Y1
G1 F2520 X169.199 Y119.419 E99.82438
M204 S5000
M205 X30 Y30
G0 F9000 X169.199 Y118.853
M204 S500
M205 X1 Y1
G1 F2520 X166.146 Y115.8 E99.87852
M204 S5000
M205 X30 Y30
G0 F9000 X166.711 Y115.8
M204 S500
M205 X1 Y1
G1 F2520 X169.199 Y118.287 E99.92263
M204 S5000
M205 X30 Y30
G0 F9000 X169.199 Y117.721
M204 S500
M205 X1 Y1
G1 F2520 X167.277 Y115.8 E99.95671
M204 S5000
M205 X30 Y30
G0 F9000 X167.843 Y115.8
M204 S500
M205 X1 Y1
G1 F2520 X169.199 Y117.156 E99.98076
M204 S5000
M205 X30 Y30
G0 F9000 X169.199 Y116.59
M204 S500
M205 X1 Y1
G1 F2520 X168.408 Y115.8 E99.99478
M204 S5000
M205 X30 Y30
G0 F9000 X168.974 Y115.8
M204 S500
M205 X1 Y1
G1 F2520 X169.199 Y116.024 E99.99876
M204 S5000
M205 X30 Y30
G0 F9000 X169 Y116.024
;MESH:NONMESH
G0 F600 X169 Y116.024 Z10
G0 F9000 X160.67 Y124.33
G0 X160.6 Y124.4
;TIME_ELAPSED:332.027611
;LAYER:49
M204 S1000
;TYPE:WALL-INNER
;MESH:cube.stl
G1 F3000 X160.6 Y115.6 E100.10912
G1 X169.4 Y115.6 E100.21947
G1 X169.4 Y124.4 E100.32983
G1 X160.6 Y124.4 E100.44018
M204 S5000
G0 F9000 X160.2 Y124.8
M204 S500
;TYPE:WALL-OUTER
G1 F3000 X160.2 Y115.2 E100.56057
G1 X169.8 Y115.2 E100.68096
G1 X169.8 Y124.8 E100.80135
G1 X160.2 Y124.8 E100.92173
M204 S5000
G0 F9000 X160.2 Y124.6
G0 X160.64 Y124.36
G0 X160.7 Y124.36
G0 X161.385 Y115.8
M204 S500
M205 X1 Y1
;TYPE:SKIN
G1 F2520 X160.799 Y116.386 E100.93213
M204 S5000
M205 X30 Y30
G0 F9000 X160.799 Y116.951
M204 S500
M205 X1 Y1
G1 F2520 X161.951 Y115.8 E100.95255
M204 S5000
M205 X30 Y30
G0 F9000 X162.517 Y115.8
M204 S500
M205 X1 Y1
G1 F2520 X160.799 Y117.517 E100.98301
M204 S5000
M205 X30 Y30
G0 F9000 X160.799 Y118.083
M204 S500
M205 X1 Y1
G1 F2520 X163.082 Y115.8 E101.02349
M204 S5000
M205 X30 Y30
G0 F9000 X163.648 Y115.8
M204 S500
M205 X1 Y1
G1 F2520 X160.799 Y118.648 E101.07401
M204 S5000
M205 X30 Y30
G0 F9000 X160.799 Y119.214
M204 S500
M205 X1 Y1
G1 F2520 X164.214 Y115.8 E101.13457
M204 S5000
M205 X30 Y30
G0 F9000 X164.779 Y115.8
M204 S500
M205 X1 Y1
G1 F2520 X160.799 Y119.78 E101.20515
M204 S5000
M205 X30 Y30
G0 F9000 X160.799 Y120.346
M204 S500
M205 X1 Y1
G1 F2520 X165.345 Y115.8 E101.28577
M204 S5000
M205 X30 Y30
G0 F9000 X165.911 Y115.8
M204 S500
M205 X1 Y1
G1 F2520 X160.799 Y120.911 E101.37643
M204 S5000
M205 X30 Y30
G0 F9000 X160.799 Y121.477
M204 S500
M205 X1 Y1
G1 F2520 X166.476 Y115.8 E101.47711
M204 S5000
M205 X30 Y30
G0 F9000 X167.042 Y115.8
M204 S500
M205 X1 Y1
G1 F2520 X160.799 Y122.043 E101.58782
M204 S5000
M205 X30 Y30
G0 F9000 X160.799 Y122.608
M204 S500
M205 X1 Y1
G1 F2520 X167.608 Y115.8 E101.70857
M204 S5000
M205 X30 Y30
G0 F9000 X168.174 Y115.8
M204 S500
M205 X1 Y1
G1 F2520 X160.799 Y123.174 E101.83936
M204 S5000
M205 X30 Y30
G0 F9000 X160.799 Y123.74
M204 S500
M205 X1 Y1
G1 F2520 X168.739 Y115.8 E101.98017
M204 S5000
M205 X30 Y30
G0 F9000 X169.199 Y115.906
M204 S500
M205 X1 Y1
G1 F2520 X160.904 Y124.2 E102.12727
M204 S5000
M205 X30 Y30
G0 F9000 X161.47 Y124.2
M204 S500
M205 X1 Y1
G1 F2520 X169.199 Y116.471 E102.26434
M204 S5000
M205 X30 Y30
G0 F9000 X169.199 Y117.037
M204 S500
M205 X1 Y1
G1 F2520 X162.036 Y124.2 E102.39138
M204 S5000
M205 X30 Y30
G0 F9000 X162.602 Y124.2
M204 S500
M205 X1 Y1
G1 F2520 X169.199 Y117.603 E102.50837
M204 S5000
M205 X30 Y30
G0 F9000 X169.199 Y118.168
M204 S500
M205 X1 Y1
G1 F2520 X163.167 Y124.2 E102.61535
M204 S5000
M205 X30 Y30
G0 F9000 X163.733 Y124.2
M204 S500
M205 X1 Y1
G1 F2520 X169.199 Y118.734 E102.71229
M204 S5000
M205 X30 Y30
G0 F9000 X169.199 Y119.3
M204 S500
M205 X1 Y1
G1 F2520 X164.299 Y124.2 E102.79919
M204 S5000
M205 X30 Y30
G0 F9000 X164.864 Y124.2
M204 S500
M205 X1 Y1
G1 F2520 X169.199 Y119.865 E102.87607
M204 S5000
M205 X30 Y30
G0 F9000 X169.199 Y120.431
M204 S500
M205 X1 Y1
G1 F2520 X165.43 Y124.2 E102.94291
M204 S5000
M205 X30 Y30
G0 F9000 X165.996 Y124.2
M204 S500
M205 X1 Y1
G1 F2520 X169.199 Y120.997 E102.99971
M204 S5000
M205 X30 Y30
G0 F9000 X169.199 Y121.562
M204 S500
M205 X1 Y1
G1 F2520 X166.561 Y124.2 E103.0465
M204 S5000
M205 X30 Y30
G0 F9000 X167.127 Y124.2
M204 S500
M205 X1 Y1
G1 F2520 X169.199 Y122.128 E103.08325
M204 S5000
M205 X30 Y30
G0 F9000 X169.199 Y122.694
M204 S500
M205 X1 Y1
G1 F2520 X167.693 Y124.2 E103.10995
M204 S5000
M205 X30 Y30
G0 F9000 X168.258 Y124.2
M204 S500
M205 X1 Y1
G1 F2520 X169.199 Y123.26 E103.12663
M204 S5000
M205 X30 Y30
G0 F9000 X169.199 Y123.825
M204 S500
M205 X1 Y1
G1 F2520 X168.824 Y124.2 E103.13328
M204 S5000
M205 X30 Y30
G0 F9000 X168.824 Y124
;TIME_ELAPSED:339.795444
G1 F1500 E96.63328
M140 S0
M204 S3000
M205 X20 Y20
M107

M82 ;absolute extrusion mode
M104 S0
M104 T1 S0
;End of Gcode